{
    "/js/admin.js": "/js/admin.js?id=51324142eefc604a9f90",
    "/css/popover.css": "/css/popover.css?id=689a26d2bac2b355b1e2",
    "/css/admin.css": "/css/admin.css?id=063b4feadb45a70fe346",
    "/css/app.css": "/css/app.css?id=0d9f3e54abfae3419fa8",
    "/js/admin.js.map": "/js/admin.js.map?id=689a780904d74dd44ad4",
    "/css/popover.css.map": "/css/popover.css.map?id=ebff1bcfee6c257a0d2f",
    "/css/admin.css.map": "/css/admin.css.map?id=1ad3a0951b673e9c77d4",
    "/css/app.css.map": "/css/app.css.map?id=5b35ae6315559ba6d82f",
    "/js/app.js": "/js/app.js?id=51cfe6464315e39146df",
    "/js/app.js.map": "/js/app.js.map?id=f184619e41d5566c6938"
}
