<?xml version="1.0" encoding="UTF-8"?>
<svg width="225px" height="168px" viewBox="0 0 225 168" version="1.1" xmlns="http://www.w3.org/2000/svg" xmlns:xlink="http://www.w3.org/1999/xlink">
    <!-- Generator: Sketch 52.5 (67469) - http://www.bohemiancoding.com/sketch -->
    <title>Group 3</title>
    <desc>Created with Sketch.</desc>
    <defs>
        <polygon id="path-1" points="0 0 225 0 225 168 0 168"></polygon>
    </defs>
    <g id="Otras-paginas" stroke="none" stroke-width="1" fill="none" fill-rule="evenodd">
        <g id="construcción" transform="translate(-608.000000, -280.000000)">
            <g id="Group-3" transform="translate(608.000000, 280.000000)">
                <mask id="mask-2" fill="white">
                    <use xlink:href="#path-1"></use>
                </mask>
                <g id="Clip-2"></g>
                <path d="M203.594927,19.6459135 L172.389246,101.468291 L202.492598,101.468291 L218.563126,59.3297395 L218.563126,27.2182547 C218.563126,23.0414367 215.119892,19.6459135 210.884385,19.6459135 L203.594927,19.6459135 Z M143.231413,19.6459135 L112.028474,101.468291 L142.134842,101.468291 L173.335039,19.6459135 L143.231413,19.6459135 Z M82.8706411,19.6459135 L51.6677023,101.468291 L81.7713283,101.468291 L112.973993,19.6459135 L82.8706411,19.6459135 Z M22.5098691,19.6459135 L6.43687404,61.7952786 L6.43687404,93.8959497 C6.43687404,98.0727676 9.88284962,101.468291 14.1183566,101.468291 L21.4105563,101.468291 L52.6107537,19.6459135 L22.5098691,19.6459135 Z M46.1738797,0 L46.1738797,13.2982315 L180.596809,13.2982315 L180.596809,0 L206.191059,0 L206.191059,13.2982315 L210.884385,13.2982315 C218.639886,13.2982315 225,19.5702171 225,27.2182547 L225,93.8959497 C225,101.543987 218.639886,107.815973 210.884385,107.815973 L206.191059,107.815973 L206.191059,168 L180.596809,168 L180.596809,107.815973 L46.1738797,107.815973 L46.1738797,168 L20.5799035,168 L20.5799035,107.815973 L14.1183566,107.815973 C6.36011404,107.815973 0,101.543987 0,93.8959497 L0,27.2182547 C0,19.5702171 6.36011404,13.2982315 14.1183566,13.2982315 L20.5799035,13.2982315 L20.5799035,0 L46.1738797,0 Z" id="Fill-1" fill="#002347" mask="url(#mask-2)"></path>
            </g>
        </g>
    </g>
</svg>