<?xml version="1.0" encoding="utf-8"?>
<!-- Generator: Adobe Illustrator 21.1.0, SVG Export Plug-In . SVG Version: 6.00 Build 0)  -->
<svg version="1.1" id="Capa_1" xmlns="http://www.w3.org/2000/svg" xmlns:xlink="http://www.w3.org/1999/xlink" x="0px" y="0px"
	 viewBox="0 0 171.5 53.4" style="enable-background:new 0 0 171.5 53.4;" xml:space="preserve">
<style type="text/css">
	.st0{fill:#002144;}
	.st1{clip-path:url(#SVGID_2_);fill:url(#SVGID_3_);}
	.st2{fill:#325099;}
	.st3{fill:#FFFFFF;}
	.st4{clip-path:url(#SVGID_5_);fill:url(#SVGID_6_);}
	.st5{clip-path:url(#SVGID_8_);fill:url(#SVGID_9_);}
	.st6{clip-path:url(#SVGID_11_);fill:url(#SVGID_12_);}
	.st7{clip-path:url(#SVGID_14_);fill:url(#SVGID_15_);}
	.st8{clip-path:url(#SVGID_17_);fill:url(#SVGID_18_);}
	.st9{clip-path:url(#SVGID_20_);fill:url(#SVGID_21_);}
	.st10{fill:#57585A;}
	.st11{clip-path:url(#SVGID_23_);fill:url(#SVGID_24_);}
	.st12{clip-path:url(#SVGID_26_);fill:url(#SVGID_27_);}
	.st13{clip-path:url(#SVGID_29_);fill:url(#SVGID_30_);}
	.st14{clip-path:url(#SVGID_32_);fill:url(#SVGID_33_);}
	.st15{clip-path:url(#SVGID_35_);fill:url(#SVGID_36_);}
	.st16{clip-path:url(#SVGID_38_);fill:url(#SVGID_39_);}
</style>
<g>
	<path class="st0" d="M19.3,8.5c0-1.2-0.6-2.2-2.5-2.2h-5.7v4.3H17C18.5,10.6,19.3,9.7,19.3,8.5 M19.3,17.3c0-1.3-0.6-2.3-2.5-2.3
		h-5.7v4.4H17C18.5,19.5,19.3,18.6,19.3,17.3 M25.5,18.6c0,3.2-1.8,6.6-8.3,6.6H4.9V15H0.6v-4.5h4.3v-10h6.2v3.8l3.8-3.8h3.2
		c4.9,0,7.4,2.4,7.4,6.3c0,2.8-1.3,4.6-3.9,5.7v0.1C24,13.5,25.5,15.4,25.5,18.6 M58.6,5.1c-0.7,0-1.3,0.1-1.7,0.3l-3.4,3.4V5.5
		h-5.8v19.7h5.8v-15c0,0,1.6,0,3.6,0c2,0,3.8,1.6,3.8,3.6v11.4h5.5V12C66.5,8.2,63.9,5.1,58.6,5.1 M79.4,5.1c-0.7,0-1.3,0.1-1.7,0.3
		l-3.4,3.4V5.5h-5.8v19.7h5.8v-15c0,0,1.6,0,3.6,0c2,0,3.8,1.6,3.8,3.6v11.4h5.4V12C87.2,8.2,84.7,5.1,79.4,5.1 M40.8,15.5
		c0-3-1.4-5.6-4.4-5.6c-3,0-4.4,2.6-4.4,5.6c0,2.8,1.5,5.1,4.4,5.1C39.3,20.6,40.8,18.3,40.8,15.5 M46.1,15.6c0,5.8-3.7,9.9-9.8,9.9
		s-9.8-4.2-9.8-9.9c0-6.1,4.1-10.6,9.8-10.6C42,5.1,46.1,9.5,46.1,15.6 M94.5,13.8L94.5,13.8l7.8,0v0c0-2.1-1.7-3.8-3.9-3.8
		C96.3,10.1,94.5,11.7,94.5,13.8 M107.2,12.3c0.2,1,0.4,2.1,0.4,3.3c0,0.6,0,1.8,0,1.8h-6.1h-7c0,0.2,0,0.3,0.1,0.5
		c0,0.2,0.1,0.4,0.2,0.6c0,0,0,0,0,0c0.5,1.2,1.8,2,3.6,2c0.1,0,0.2,0,0.3,0c2.5,0,4.2-1,5.4-1.9h0.3l1.9,4.8
		c-1.2,1-3.9,2.1-7.4,2.1c-5.8,0-9.9-3.7-9.9-10.2c0-6.4,4.1-10.4,9.6-10.4c4.3,0,7.4,2.5,8.6,6.5C107.1,11.8,107.2,12,107.2,12.3
		 M130.9,5.5v2.1V10h-4.3v15.2h-3.3h-2.5V10h-1h-2.3h-1v15.2h-3.3h-2.5V10h-3.3V5.5h3.3v-2l2.9-3h2.8v4.9h1h2.3h1v-2l2.9-3h2.8v4.9
		H130.9z"/>
	<g>
		<defs>
			<path id="SVGID_28_" d="M130.9,32.7c0,10.8,8.8,19.6,19.6,19.6c10.8,0,19.6-8.8,19.6-19.6c0-10.8-8.8-19.6-19.6-19.6
				C139.7,13.1,130.9,21.9,130.9,32.7"/>
		</defs>
		<clipPath id="SVGID_2_">
			<use xlink:href="#SVGID_28_"  style="overflow:visible;"/>
		</clipPath>
		
			<radialGradient id="SVGID_3_" cx="-1137.3368" cy="600.851" r="0.4415" gradientTransform="matrix(82.0156 0 0 -82.0156 93443.8516 49297.5586)" gradientUnits="userSpaceOnUse">
			<stop  offset="0" style="stop-color:#C5464B"/>
			<stop  offset="1" style="stop-color:#325099"/>
		</radialGradient>
		<rect x="130.9" y="13.1" class="st1" width="39.3" height="39.3"/>
	</g>
	<path class="st2" d="M133.4,42.4c-1.4,1-2.2,2.6-2.2,4.3c0,3,2.4,5.3,5.3,5.3c1.8,0,3.4-0.9,4.3-2.2
		C137.8,48.1,135.2,45.5,133.4,42.4"/>
	<path class="st3" d="M136.5,41.4c-1.2,0-2.2,0.4-3.1,1c1.8,3.1,4.3,5.7,7.5,7.5c0.6-0.9,1-1.9,1-3.1
		C141.9,43.8,139.5,41.4,136.5,41.4"/>
</g>
<g>
	<path class="st0" d="M6.4,49.5v1.7H1.4v-8.4h1.8v6.7H6.4z"/>
	<path class="st0" d="M14.6,47.1c0,2.1-1.2,4.2-3.9,4.2c-2.8,0-3.9-2.2-3.9-4.2c0-2.4,1.6-4.4,3.9-4.4S14.6,44.7,14.6,47.1z M8.5,47
		c0,1.4,0.7,2.6,2.1,2.6c1.4,0,2.1-1.2,2.1-2.6c0-1.5-0.8-2.7-2.1-2.7C9.2,44.3,8.5,45.6,8.5,47z"/>
	<path class="st0" d="M22.6,44.7L21.3,46h-0.1c-0.4-1-0.9-1.7-1.9-1.7c-1.3,0-2.1,1.2-2.1,2.7c0,1.4,0.7,2.6,2.1,2.6
		c0.7,0,1.4-0.3,1.6-0.8v-0.6h-1.4v-1.5h3.2v4.5h-1.1l-0.3-0.9h0c-0.3,0.5-1,1-2.2,1c-2.5,0-3.7-2.2-3.7-4.2c0-2.4,1.6-4.4,3.9-4.4
		C21.1,42.7,22.1,43.8,22.6,44.7z"/>
	<path class="st0" d="M24.1,51.2v-8.4h1.8v8.4H24.1z M24.2,42.1l0.9-1.7h2.1l-1.6,1.7H24.2z"/>
	<path class="st0" d="M33.2,44.3l-0.9,1.5h-0.1C31.9,45,31,44.3,30,44.3c-0.7,0-1.1,0.3-1.1,0.8c0,0.6,0.8,0.8,1.8,1.1
		c1.8,0.5,2.9,1,2.9,2.6c0,1.5-1.2,2.5-3,2.5c-1.8,0-3-0.8-3.6-1.6l0.8-1.7h0.1c0.5,0.7,1.5,1.6,2.8,1.6c0.6,0,1.2-0.2,1.2-0.8
		c0-0.6-0.6-0.8-1.9-1.1c-1.6-0.4-2.7-1-2.7-2.5c0-1.3,1.1-2.5,2.9-2.5C31.7,42.7,32.9,43.6,33.2,44.3z"/>
	<path class="st0" d="M38.1,44.5v6.7h-1.8v-6.7H34v-1.7h6.5v1.7H38.1z"/>
	<path class="st0" d="M41.4,51.2v-8.4h1.8v8.4H41.4z"/>
	<path class="st0" d="M51.6,44.7L50.4,46h-0.1c-0.4-1-0.9-1.7-1.9-1.7c-1.3,0-2.1,1.2-2.1,2.7c0,1.3,0.7,2.6,2.1,2.6
		c1,0,1.6-0.7,2-2h0.1l1.5,1.2c-0.5,1.5-1.8,2.6-3.6,2.6c-2.8,0-3.8-2.3-3.8-4.2c0-2.4,1.6-4.4,3.9-4.4
		C50.1,42.7,51.1,43.8,51.6,44.7z"/>
	<path class="st0" d="M58.3,51.2l-0.6-1.8h-3.4l-0.6,1.8h-1.9l3-8.4h2.4l3,8.4H58.3z M54.9,47.8h2.3l-1.1-3.4H56L54.9,47.8z"/>
</g>
</svg>
