<?xml version="1.0" encoding="utf-8"?>
<!-- Generator: Adobe Illustrator 21.1.0, SVG Export Plug-In . SVG Version: 6.00 Build 0)  -->
<svg version="1.1" id="Capa_1" xmlns="http://www.w3.org/2000/svg" xmlns:xlink="http://www.w3.org/1999/xlink" x="0px" y="0px"
	 viewBox="0 0 433 192.1" style="enable-background:new 0 0 433 192.1;" xml:space="preserve">
<style type="text/css">
	.st0{fill:none;}
	.st1{fill:#003866;}
	.st2{fill:#6E789E;}
	.st3{fill:#CE251D;}
	.st4{fill:#001780;}
	.st5{fill:#FFFFFF;}
	.st6{fill:#ED8500;}
	.st7{fill:#004596;}
	.st8{fill:#00519F;}
	.st9{fill:#DF0109;}
	.st10{fill:#1E120D;}
</style>
<title>SistContraincendioImagenes</title>
<g>
	<g>
		<path class="st0" d="M101.3,145.2c-2.3-1.6-6.5-1.4-9.3-1.4h-0.3v16.5H93c2.5,0,6.3,0.2,8.3-1.3c2.1-1.7,3.3-4.2,3.1-6.9
			C104.4,149.4,103.6,146.8,101.3,145.2z"/>
		<path class="st0" d="M125.6,132.9c0.8,0,1.6-0.2,2.2-0.8c0.6-0.6,0.9-1.5,0.8-2.3c0.1-0.8-0.2-1.5-0.8-2.1
			c-0.6-0.5-1.4-0.7-2.2-0.7s-1.6,0.3-2.2,0.8c-0.6,0.6-1,1.4-0.9,2.3c0,0.8,0.3,1.5,0.8,2.1C123.9,132.7,124.8,133,125.6,132.9z"/>
		<path class="st0" d="M89.3,132.2c0.6-0.5,1-1.3,1-2.1s-0.4-1.6-1-2.1c-1.5-1.1-3.5-1.1-5,0c-0.6,0.5-1,1.3-1,2.1s0.4,1.6,1,2.1
			c0.7,0.6,1.6,0.8,2.5,0.8C87.7,133,88.6,132.8,89.3,132.2z"/>
		<path class="st0" d="M77.8,127.8c-0.6-0.6-1.5-0.8-2.3-0.8s-1.6,0.3-2.2,0.8c-0.6,0.6-0.9,1.3-0.8,2.1c-0.1,0.8,0.2,1.7,0.8,2.3
			c0.6,0.6,1.5,0.9,2.3,0.8c0.8,0.1,1.6-0.2,2.2-0.7c0.6-0.6,0.9-1.5,0.8-2.3C78.6,129.2,78.4,128.4,77.8,127.8z"/>
		<path class="st0" d="M117.1,127.9c-1.3-1-3.1-1.1-4.4-0.1c-0.6,0.6-0.9,1.3-0.8,2.1c0.1,1.8,1.5,3.1,3.3,3.1c0.7,0,1.4-0.3,2-0.8
			c0.5-0.6,0.8-1.3,0.8-2.1h-0.1C117.9,129.3,117.7,128.5,117.1,127.9z"/>
		<polygon class="st0" points="154.1,154.1 157.3,154.1 155.6,150.8 		"/>
		<path class="st1" d="M138.6,166.4h8.5l3.7-6.2h9.7l3.6,6.2h8.9l-16.8-29L138.6,166.4z M154.1,154.1l1.5-3.3l1.7,3.3H154.1z"/>
		<path class="st1" d="M106.4,140.6c-2.3-1.3-4.8-2.2-7.4-2.4c-2.7-0.3-5.3-0.4-8-0.3h-7.4v28.5h8.3c5,0,10.2-0.1,14.4-2.7
			c4-2.4,6.4-6.8,6.3-11.5C112.7,147.5,110.4,143.1,106.4,140.6z M101.3,159c-2,1.5-5.8,1.3-8.3,1.3h-1.3v-16.5H92
			c2.8,0,7-0.2,9.3,1.4c2.3,1.6,3.1,4.2,3.1,6.9C104.6,154.8,103.4,157.3,101.3,159z"/>
		<polygon class="st1" points="182.8,160.2 182.8,137.9 174.8,137.9 174.8,166.4 195.2,166.4 195.2,160.2 		"/>
		<polygon class="st1" points="71.3,166.4 79.3,166.4 79.3,162.2 79.3,137.9 71.3,137.9 		"/>
		<path class="st1" d="M116.1,137.9v9.3c2.9,0.7,5.2,1.3,8-0.1v-3h12.5l-0.1-6.2H116.1z"/>
		<path class="st2" d="M124.1,160.1v-4l2.2-0.4c3.3,0.8,6.8,0.9,10.2,0.4v-6.7c-4.9,1.1-6.4,1.3-10.2-1.7c-3.8,3-5.3,2.8-10.2,1.7
			v17h20.5l-0.1-6.3H124.1z"/>
		<polygon class="st1" points="46.3,138.6 59.3,138 35.4,138 31.8,138 31.8,140.8 35.4,140.8 35.4,163.5 31.8,163.5 31.8,166.4 
			67.7,166.4 46.3,165.4 67.7,164.5 46.3,163.5 64.1,162.7 64.1,162.4 46.3,161.6 64.1,160.8 64.1,160.5 46.3,159.7 64.1,158.9 
			64.1,158.5 46.3,157.8 64.1,156.9 64.1,156.6 46.3,155.8 64.1,155 64.1,154.7 46.3,153.9 64.1,153.1 64.1,152.8 46.3,152 
			64.1,151.2 64.1,150.9 46.3,150.1 64.1,149.3 64.1,148.9 46.3,148.2 64.1,147.4 64.1,147 46.3,146.2 64.1,145.4 64.1,145.1 
			46.3,144.3 64.1,143.5 64.1,143.2 46.3,142.4 64.1,141.6 64.1,141.3 46.3,140.5 67.7,139.5 		"/>
		<path class="st3" d="M49.9,133.9c2.2,0,4.3-0.3,6.4-0.8l-10-0.4l12.9-0.6l1.5-0.7l-14.6-0.7l16.8-0.8l0.5-0.4l-17.3-0.8l18.7-0.8
			l0.2-0.2l-18.9-0.8l19.7-0.9v-0.2l-19.7-0.9L66,124l-19.8-0.9l19.3-0.9V122l-19.2-0.9l18.1-0.8l-0.3-0.3l-17.8-0.8l15.9-0.7
			l-0.9-0.5l-15-0.7l12.4-0.5c-1.2-0.4-2.4-0.8-3.6-1l-8.1-0.4c-7.7,0.8-13.6,4.6-13.6,9.2C33.4,129.8,40.8,133.9,49.9,133.9z"/>
		<path class="st2" d="M75.8,126.1c-0.7,0-1.4,0.1-2,0.4c-0.5,0.3-1,0.7-1.3,1.2V121h-1.2v12.5h1.2l0.1-1.2c0.3,0.5,0.7,0.9,1.2,1.2
			c0.6,0.3,1.2,0.4,1.9,0.4c1.1,0,2.2-0.4,3.1-1.1c0.8-0.7,1.2-1.7,1.2-2.8s-0.4-2.1-1.2-2.8C78,126.5,76.9,126.1,75.8,126.1z
			 M77.8,132.3c-0.6,0.5-1.4,0.8-2.2,0.7c-0.8,0.1-1.7-0.2-2.3-0.8c-0.6-0.6-0.9-1.5-0.8-2.3c-0.1-0.8,0.2-1.5,0.8-2.1
			c0.6-0.5,1.4-0.8,2.2-0.8s1.7,0.2,2.3,0.8c0.6,0.6,0.8,1.4,0.8,2.2C78.7,130.8,78.4,131.7,77.8,132.3z"/>
		<path class="st2" d="M86.8,133.9c0.7,0,1.3-0.2,1.9-0.4s1.1-0.5,1.6-0.9c0.4-0.3,0.7-0.7,1-1.2c0.5-0.9,0.5-2,0-2.9
			c-0.3-0.5-0.7-0.9-1.1-1.2c-0.5-0.4-1-0.6-1.6-0.8c-1.2-0.4-2.5-0.4-3.7,0c-0.6,0.2-1.1,0.4-1.6,0.8c-0.4,0.3-0.8,0.7-1,1.2
			c-0.3,0.5-0.4,1-0.4,1.5s0.1,1,0.4,1.5c0.2,0.5,0.6,0.9,1,1.2c0.5,0.4,1.1,0.7,1.7,0.9C85.6,133.8,86.2,133.9,86.8,133.9z
			 M83.3,130.1c0-0.8,0.4-1.6,1-2.1c1.5-1.1,3.5-1.1,5,0c0.6,0.5,1,1.3,1,2.1s-0.4,1.6-1,2.1c-0.7,0.6-1.6,0.8-2.5,0.8
			s-1.8-0.2-2.5-0.8C83.7,131.7,83.3,130.9,83.3,130.1z"/>
		<path class="st2" d="M95.7,129.9c-0.1-0.7,0.2-1.5,0.6-2.1c0.5-0.5,1.3-0.8,2-0.7c0.6-0.1,1.2,0.1,1.6,0.5s0.6,1,0.5,1.6v4.5h1.3
			v-3.8c-0.1-0.7,0.2-1.5,0.6-2.1c0.5-0.5,1.2-0.8,1.9-0.7c0.6,0,1.1,0.1,1.6,0.5c0.4,0.4,0.6,1,0.5,1.6v4.5h1.2v-4.8
			c0-0.7-0.2-1.4-0.8-1.9c-0.7-0.5-1.5-0.8-2.3-0.7c-0.6,0-1.2,0.1-1.8,0.3c-0.5,0.3-1,0.6-1.3,1.1c-0.3-0.4-0.6-0.8-1.1-1
			c-0.5-0.3-1.1-0.4-1.7-0.4s-1.2,0.1-1.7,0.3s-0.9,0.6-1.2,1v-1.1h-1.3v7.1h1.2L95.7,129.9z"/>
		<path class="st2" d="M119.4,130c0-1.1-0.4-2.1-1.2-2.8s-1.9-1.1-3-1.1c-0.7,0-1.4,0.1-2,0.4c-0.5,0.3-1,0.7-1.3,1.2v-6.6h-1.3
			v12.5h1.3v-1.3c0.3,0.5,0.8,0.9,1.3,1.2c0.6,0.3,1.2,0.4,1.9,0.4c1.1,0,2.2-0.4,3.1-1.1C119,132.1,119.4,131.1,119.4,130z
			 M117.2,132.2c-0.6,0.5-1.3,0.8-2,0.8c-1.8,0.1-3.2-1.3-3.3-3.1c-0.1-0.8,0.2-1.5,0.8-2.1c1.3-1,3.1-0.9,4.4,0.1
			c0.6,0.6,0.8,1.4,0.8,2.2h0.1C118,130.9,117.7,131.6,117.2,132.2z"/>
		<path class="st2" d="M125.4,133.9c0.7,0,1.3-0.1,1.9-0.4c0.5-0.3,1-0.7,1.3-1.2v1.3h1.3v-7.1h-1.3v1.2c-0.3-0.5-0.8-0.9-1.3-1.2
			c-0.6-0.3-1.3-0.4-2-0.4c-1.1,0-2.2,0.4-3,1.1s-1.2,1.7-1.2,2.8s0.4,2.1,1.2,2.8C123.2,133.5,124.3,133.9,125.4,133.9z
			 M123.4,127.8c0.6-0.5,1.4-0.8,2.2-0.8s1.6,0.2,2.2,0.7c0.6,0.6,0.9,1.3,0.8,2.1c0.1,0.8-0.2,1.7-0.8,2.3s-1.4,0.8-2.2,0.8
			c-0.8,0.1-1.7-0.2-2.3-0.7c-0.5-0.6-0.8-1.3-0.8-2.1C122.4,129.2,122.8,128.4,123.4,127.8z"/>
		<path class="st2" d="M138.2,130.4c-0.6-0.4-1.3-0.7-2-0.9l-1.7-0.6c-0.2-0.2-0.4-0.4-0.4-0.7s0.2-0.5,0.4-0.7
			c0.3-0.2,0.7-0.3,1.1-0.3c0.4,0,0.8,0.1,1.2,0.3c0.3,0.2,0.6,0.5,0.7,0.8l1.1-0.5c-0.2-0.5-0.6-0.9-1.1-1.1
			c-0.6-0.3-1.2-0.4-1.9-0.4s-1.5,0.2-2.1,0.6c-0.5,0.3-0.8,0.9-0.8,1.5c0,0.5,0.2,0.9,0.6,1.2c0.6,0.4,1.3,0.7,2,0.9h0.3
			c1.2,0.4,1.8,0.9,1.8,1.4c0,0.3-0.2,0.6-0.5,0.8c-0.4,0.2-0.8,0.3-1.3,0.3s-1-0.1-1.4-0.3s-0.7-0.5-0.9-0.9l-1.2,0.5
			c0.3,0.5,0.7,1,1.3,1.2c0.6,0.3,1.3,0.4,2,0.4c0.8,0,1.7-0.2,2.4-0.6c0.6-0.3,0.9-0.9,0.9-1.6
			C138.7,131.2,138.5,130.7,138.2,130.4z"/>
	</g>
	<g>
		<path class="st4" d="M391.5,155.7c-2.5,0-4.5,1.7-4.5,3.6c0,1.9,2,3.5,4.5,3.5s4.5-1.5,4.5-3.5S394,155.7,391.5,155.7z
			 M391.5,162.1c-1.9,0-3.5-1.3-3.5-2.8s1.6-2.8,3.5-2.8c2,0,3.5,1.3,3.5,2.8S393.4,162.1,391.5,162.1z"/>
		<path class="st5" d="M391.5,156.5c-1.9,0-3.5,1.3-3.5,2.8s1.6,2.8,3.5,2.8s3.5-1.3,3.5-2.8S393.5,156.5,391.5,156.5z M392.7,161
			l-0.7-0.8l-0.5-0.5l-0.3-0.2h-0.7v1.5h-0.8v-3.6h3l0.5,0.4c0.1,0.2,0.2,0.4,0.2,0.6c0,0.3-0.1,0.5-0.3,0.7l-0.9,0.3l0.5,0.3
			l0.5,0.6l0.6,0.7H392.7z"/>
		<path class="st5" d="M392.5,158.4c0-0.1,0-0.2-0.1-0.3h-1.7l-0.1,0.8h1.5l0.3-0.2C392.5,158.6,392.5,158.5,392.5,158.4z"/>
		<path class="st4" d="M328.8,119.1c-45.1,0-81.7,9.7-81.7,21.6c0,11.9,36.6,21.6,81.7,21.6s81.7-9.7,81.7-21.6
			C410.5,128.8,373.9,119.1,328.8,119.1z M328.8,160c-42.9,0-77.7-8.6-77.7-19.3s34.8-19.4,77.7-19.4v-0.1
			c42.9,0,77.7,8.7,77.7,19.4S371.7,160,328.8,160z"/>
		<path class="st6" d="M328.8,121.2v0.1c-42.9,0-77.7,8.7-77.7,19.4s34.8,19.3,77.7,19.3s77.7-8.7,77.7-19.4
			S371.7,121.2,328.8,121.2z M328.8,158.9c-39.8,0-72.1-8.1-72.1-18.2s32.3-18.3,72.1-18.3v-0.1c39.8,0,72.1,8.2,72.1,18.3
			S368.6,158.9,328.8,158.9z"/>
		<path class="st4" d="M306.8,138h-5.2v1.4h5.2c0.4,0,0.8-0.3,0.9-0.7l0,0C307.6,138.2,307.2,137.9,306.8,138z"/>
		<path class="st4" d="M328.8,122.3L328.8,122.3c-39.8,0.1-72.1,8.3-72.1,18.4c0,10.1,32.3,18.2,72.1,18.2s72.1-8.2,72.1-18.3
			C400.9,130.5,368.6,122.3,328.8,122.3z M279.8,143.7c-0.3,0.4-0.7,0.7-1.2,0.9c-0.6,0.2-1.2,0.4-1.9,0.4h-8.4v-8.7h8.1l1.8,0.4
			c0.4,0.1,0.8,0.4,1.1,0.7c0.3,0.2,0.5,0.6,0.5,1s-0.2,0.8-0.5,1.1c-0.5,0.4-1.1,0.6-1.7,0.8c0.7,0.1,1.4,0.4,2,0.8
			c0.4,0.3,0.7,0.9,0.7,1.4C280.3,143,280.1,143.4,279.8,143.7z M294.9,137.8h-8.1v1.7h6.3v1.4h-6.3v2.4h8.1v1.8H284v-8.8h10.9
			V137.8z M308.5,145.1l-4.1-3.8h-2.7v3.9h-3v-8.8l9.8-0.1c1.6,0.2,2.8,0.6,2.8,2.4s-1.2,2.4-3,2.6l3.9,3.8
			C312.2,145.1,308.5,145.1,308.5,145.1z M325.7,145.1l-3.9-4.3l-2.3,1.5v2.8h-3.4v-8.8h2.9v4l6.1-4h3.5l-4.6,3.1l5.1,5.7H325.7z
			 M344.2,137.8H336v1.7h6.3v1.4H336v2.4h8.2v1.8h-11v-8.8h11V137.8z M358.8,145.1h-10.1v-8.8h2.3v7h7.8L358.8,145.1L358.8,145.1z
			 M373.6,137.8h-8.2v1.7h6.3v1.4h-6.3v2.4h8.2v1.8h-11v-8.8h11V137.8z M384,142.4v2.7h-2.9v-2.7l-5.4-6.1h3.3l3.6,4.1l3.8-4.1h3.1
			L384,142.4z"/>
		<path class="st4" d="M392.7,159.7l-0.5-0.3l0.9-0.3c0.2-0.2,0.3-0.4,0.3-0.7c0-0.2-0.1-0.4-0.2-0.6l-0.5-0.4h-3v3.6h0.8v-1.5h0.7
			l0.3,0.2l0.5,0.5l0.7,0.8h1.1l-0.6-0.7L392.7,159.7z M390.6,158.9l0.1-0.8h1.7c0.1,0.1,0.1,0.2,0.1,0.3s0,0.2-0.1,0.3l-0.3,0.2
			H390.6z"/>
		<polygon class="st6" points="284,145.1 294.9,145.1 294.9,143.3 286.8,143.3 286.8,140.9 293.1,140.9 293.1,139.5 286.8,139.5 
			286.8,137.8 294.9,137.8 294.9,136.3 284,136.3 		"/>
		<path class="st6" d="M311.3,138.7c0-1.8-1.2-2.2-2.8-2.4l-9.8,0.1v8.8h3v-3.9h2.7l4.1,3.8h3.7l-3.9-3.8
			C310.1,141.1,311.3,140.5,311.3,138.7z M306.8,139.4h-5.2V138h5.2c0.4-0.1,0.8,0.2,0.9,0.7l0,0
			C307.6,139.1,307.2,139.4,306.8,139.4z"/>
		<polygon class="st6" points="333.2,145.1 344.2,145.1 344.2,143.3 336,143.3 336,140.9 342.3,140.9 342.3,139.5 336,139.5 
			336,137.8 344.2,137.8 344.2,136.3 333.2,136.3 		"/>
		<polygon class="st6" points="382.6,140.4 379,136.3 375.7,136.3 381.1,142.4 381.1,145.1 384,145.1 384,142.4 389.5,136.3 
			386.4,136.3 		"/>
		<polygon class="st6" points="362.6,145.1 373.6,145.1 373.6,143.3 365.4,143.3 365.4,140.9 371.7,140.9 371.7,139.5 365.4,139.5 
			365.4,137.8 373.6,137.8 373.6,136.3 362.6,136.3 		"/>
		<polygon class="st6" points="351,136.3 348.7,136.3 348.7,145.1 358.8,145.1 358.8,143.3 351,143.3 		"/>
		<polygon class="st6" points="328.6,136.3 325.1,136.3 319,140.3 319,136.3 316.1,136.3 316.1,145.1 319.5,145.1 319.5,142.3 
			321.8,140.8 325.7,145.1 329.1,145.1 324,139.4 		"/>
		<path class="st6" d="M277.6,140.3c0.6-0.2,1.2-0.4,1.7-0.8c0.3-0.3,0.5-0.7,0.5-1.1c0-0.4-0.2-0.8-0.5-1c-0.3-0.3-0.7-0.6-1.1-0.7
			l-1.8-0.4h-8.1v8.7h8.4c0.7,0,1.3-0.2,1.9-0.4c0.5-0.2,0.9-0.5,1.2-0.9c0.3-0.3,0.5-0.7,0.5-1.2s-0.3-1.1-0.7-1.4
			C279,140.7,278.3,140.4,277.6,140.3z M271.1,137.9h4.4c0.5,0,1,0.3,1,0.7c-0.1,0.5-0.5,0.9-1,0.8l0,0h-4.4V137.9z M275.9,143.4
			h-4.8v-1.9h4.8c0.6-0.1,1.1,0.4,1.2,1l0,0C277,143.1,276.5,143.5,275.9,143.4z"/>
		<path class="st4" d="M275.9,141.5h-4.8v1.9h4.8c0.6,0.1,1.1-0.3,1.2-0.9l0,0C277,141.9,276.5,141.4,275.9,141.5z"/>
		<path class="st4" d="M275.5,139.4c0.5,0.1,0.9-0.3,1-0.8c0-0.4-0.5-0.7-1-0.7h-4.4v1.5H275.5L275.5,139.4z"/>
	</g>
	<g>
		<path class="st0" d="M124.4,63.1l-0.8,0.2l-0.7,0.6c-0.2,0.3-0.3,0.6-0.4,1c-0.1,0.3-0.2,0.6-0.2,0.9c0,0.4,0.1,0.9,0.4,1.2
			c0.3,0.3,0.6,0.4,1,0.4h0.6l0.6-0.4l0.4-0.6l0.3-0.7c0.1-0.3,0.2-0.7,0.2-1c0-0.4-0.1-0.9-0.4-1.2
			C125.2,63.2,124.8,63.1,124.4,63.1z"/>
		<path class="st0" d="M189.4,65.5l-0.5,0.4c-0.1,0.2-0.2,0.4-0.2,0.6c0,0.3,0.1,0.5,0.3,0.7s0.5,0.3,0.8,0.3l0.9-0.3
			c0.3-0.2,0.5-0.4,0.7-0.7c0.2-0.4,0.3-0.8,0.4-1.2h-1.2L189.4,65.5z"/>
		<path class="st0" d="M140.7,63.1c-0.3,0-0.7,0.2-0.9,0.4c-0.3,0.3-0.6,0.8-0.7,1.2c-0.2,0.3-0.3,0.7-0.3,1.1V66
			c0,0.4,0.1,0.8,0.3,1.1c0.2,0.2,0.5,0.4,0.8,0.4s0.7-0.2,0.9-0.4c0.3-0.3,0.6-0.7,0.7-1.1c0.2-0.4,0.3-0.9,0.3-1.4
			c0-0.4-0.1-0.8-0.3-1.1C141.3,63.3,141.1,63.1,140.7,63.1z"/>
		<path class="st0" d="M145.7,65.5l-0.5,0.4c-0.1,0.2-0.2,0.4-0.2,0.6c0,0.3,0.1,0.5,0.3,0.7s0.5,0.3,0.8,0.3l0.9-0.3
			c0.3-0.2,0.5-0.4,0.7-0.7c0.2-0.4,0.3-0.8,0.4-1.2h-1.2L145.7,65.5z"/>
		<path class="st0" d="M163.5,63.2l-0.7,0.2l-0.6,0.6c-0.2,0.3-0.3,0.6-0.4,0.9c-0.1,0.3-0.2,0.6-0.3,0.9h0.1c0,0.3,0,0.6,0.1,0.9
			c0.1,0.2,0.2,0.4,0.4,0.6l0.7,0.2c0.6,0,1.1-0.4,1.3-0.9c0.3-0.6,0.5-1.2,0.5-1.9c0-0.4-0.1-0.8-0.3-1.1
			C164.1,63.4,163.9,63.2,163.5,63.2z"/>
		<path class="st0" d="M179.2,65.5l-0.5,0.4c-0.1,0.2-0.2,0.4-0.2,0.6c0,0.3,0.1,0.5,0.3,0.7s0.5,0.3,0.8,0.3l0.9-0.3
			c0.3-0.2,0.5-0.4,0.7-0.7c0.2-0.4,0.3-0.8,0.4-1.2h-1.2L179.2,65.5z"/>
		<path class="st0" d="M118,63.1c-0.3,0-0.7,0.2-0.9,0.4c-0.3,0.3-0.6,0.8-0.7,1.2c-0.2,0.3-0.3,0.7-0.4,1.1V66
			c0,0.4,0.1,0.8,0.3,1.1c0.2,0.3,0.6,0.4,0.9,0.4c0.3,0,0.7-0.2,0.9-0.4c0.3-0.3,0.6-0.7,0.7-1.1c0.2-0.4,0.3-0.9,0.3-1.4
			c0-0.4-0.1-0.8-0.3-1.1C118.6,63.3,118.4,63.1,118,63.1z"/>
		<path class="st0" d="M209.2,65.5l-0.5,0.4c-0.1,0.2-0.2,0.4-0.2,0.6c0,0.3,0.1,0.5,0.3,0.7s0.5,0.3,0.8,0.3l0.9-0.3
			c0.3-0.2,0.5-0.4,0.7-0.7c0.2-0.4,0.3-0.8,0.3-1.2h-1.1L209.2,65.5z"/>
		<path class="st0" d="M197.3,63.2l-0.7,0.2L196,64c-0.2,0.3-0.3,0.6-0.4,0.9c-0.1,0.2-0.2,0.5-0.2,0.7c0,0.3,0,0.6,0.1,0.9
			c0.1,0.2,0.3,0.5,0.5,0.6l0.6,0.2c0.3,0,0.6-0.1,0.9-0.3c0.4-0.3,0.6-0.6,0.8-1s0.3-0.9,0.3-1.3s-0.1-0.8-0.4-1.1
			C198,63.3,197.7,63.2,197.3,63.2z"/>
		<path class="st0" d="M168.4,65.5l-0.5,0.4c-0.1,0.2-0.2,0.4-0.2,0.6c0,0.3,0.1,0.5,0.3,0.7s0.5,0.3,0.8,0.3l0.9-0.3
			c0.3-0.2,0.5-0.4,0.7-0.7c0.2-0.4,0.3-0.8,0.4-1.2h-1.2L168.4,65.5z"/>
		<path class="st7" d="M210.7,26.9c1.7,0,3-1.3,3-3s-1.3-3-3-3s-3,1.3-3,3S209.1,26.9,210.7,26.9z M210.7,21.3
			c1.4,0,2.6,1.2,2.6,2.6c0,1.4-1.2,2.6-2.6,2.6c-1.4,0-2.6-1.2-2.6-2.6C208.1,22.5,209.3,21.3,210.7,21.3z"/>
		<path class="st5" d="M210.7,26.5c1.4,0,2.6-1.2,2.6-2.6s-1.2-2.6-2.6-2.6c-1.4,0-2.6,1.2-2.6,2.6
			C208.1,25.3,209.3,26.5,210.7,26.5z M209.4,22.2h2.2l0.4,0.3c0.1,0.2,0.1,0.3,0.1,0.5s-0.1,0.4-0.2,0.6l-0.7,0.3l0.4,0.3l0.4,0.5
			l0.4,0.7h-0.8l-0.5-0.7l-0.4-0.5H210v1.4h-0.6V22.2L209.4,22.2z"/>
		<path class="st5" d="M211.4,23.1h-1.3v0.5h1.3C211.5,23.4,211.5,23.3,211.4,23.1z"/>
		<path class="st7" d="M155.2,29.5c-5.8-3-14.4,0.2-19.2,6.9l0.1-0.1c-4.8,6.8-4.1,14.4,1.8,17.4c5.9,3,14.5-0.2,19.3-6.9
			C162,40.1,161,32.5,155.2,29.5z M152.5,44.5c-2.7,3.7-7.5,5.5-10.7,4s-3.8-5.9-1.1-9.7v-0.1c2.7-3.7,7.5-5.5,10.7-3.8
			C154.6,36.6,155.2,40.8,152.5,44.5z"/>
		<path class="st7" d="M208.6,29.4c-5.9-3-14.5,0.2-19.3,6.9v-0.1c-4.8,6.8-3.9,14.4,2,17.4s14.6-0.2,19.3-6.9
			S214.5,32.4,208.6,29.4z M205.9,44.4c-2.6,3.7-7.5,5.5-10.9,4s-3.7-5.9-1-9.7l0.1-0.1c2.7-3.7,7.5-5.5,10.7-3.8
			C208,36.5,208.5,40.7,205.9,44.4z"/>
		<path class="st7" d="M179.6,41l3.5-12.8h-5.5l-3.1,11.3c-2.3,10,2.1,15.1,10.4,15.5l1.4-6.1h-2.7C179.6,48.4,178.5,45.4,179.6,41z
			"/>
		<path class="st7" d="M166.4,41l3.5-12.8h-5.5v0.1l-3.2,11.3c-2.3,10,2.2,15.1,10.4,15.5l1.5-6.2h-2.7
			C166.4,48.4,165.3,45.4,166.4,41z"/>
		<path class="st7" d="M129.7,42.8c2.9-1.3,4.8-4.2,4.9-7.4c0.6-4.2-1.7-7-5.6-7h-8.8l-0.1-0.1l-1.1,5.6h7.5c2.7,0,3,5,0,4.9h-8
			l-4.9,16.3h6.3l2.1-8.9c0.4-1.7,1.7-1.8,2.4,0l2.9,8.9h5.9L129.7,42.8z"/>
		<path class="st7" d="M107.3,28.2l-9.4,0.2c-0.4,2-1,4-1.4,5.9h9.7c4.1,0.4,5.4,3,4.2,8.6s-6.3,6.4-11.8,5.9l2.7-10.3h-5.9
			l-4.7,16.3h11.6c6.2-1.3,11.6-4.5,14.3-13.6C117.7,33.4,113.3,28.6,107.3,28.2z"/>
		<path class="st7" d="M80.1,44.2h11.5l1.3-4.7H81.5c1.7-3.5,5.2-6.3,13.1-6.3l1.1-4.5h-0.1c-10.1,0-17.1,3.9-19.7,12
			c1.4-7.1-2.2-12.7-8.8-12.4c-8.9,0.4-14.8,5.1-17.2,12.7l-5.8,22.2l6.5-3.5l5-17.8c1.8-4.1,4.2-7.4,8.9-7.5
			c4.7-0.1,6.5,2.5,5.5,7.2c-2.2,8.7-11.7,9.3-14.1,5.6l-1.7,6.3c7.4,2.6,13,1.6,18.5-5.2c1.2-1.9,2.1-3.7,2.7-5.5
			c-2,9.6,4.2,12.5,13.3,12.3l1.1-4.5C81.9,50.6,80,47.9,80.1,44.2z"/>
		<polygon class="st8" points="100.6,68.1 101.7,68.1 101.9,67 100.8,67 		"/>
		<polygon class="st8" points="104.2,68.1 105.3,68.1 105.5,67 104.4,67 		"/>
		<polygon class="st8" points="107.7,68.1 108.8,68.1 109,67 107.9,67 		"/>
		<path class="st8" d="M118.2,62.4l-0.8,0.2l-0.8,0.6l0.6-2.8h-1l-1.6,7.7h0.8l0.2-1.1c0.1,0.4,0.4,0.7,0.7,0.9
			c0.3,0.2,0.6,0.3,1,0.3h0.7l0.7-0.4l0.6-0.7c0.2-0.3,0.4-0.6,0.5-1c0.1-0.5,0.2-0.9,0.2-1.4c0-0.6-0.1-1.2-0.5-1.7
			C119.2,62.6,118.7,62.4,118.2,62.4z M118.8,66c-0.1,0.4-0.4,0.8-0.7,1.1c-0.2,0.2-0.6,0.4-0.9,0.4c-0.3,0-0.7-0.1-0.9-0.4
			S116,66.4,116,66v-0.2c0.1-0.4,0.2-0.8,0.4-1.1c0.1-0.4,0.4-0.9,0.7-1.2c0.2-0.2,0.6-0.4,0.9-0.4c0.3,0,0.6,0.2,0.8,0.4
			c0.2,0.3,0.3,0.7,0.3,1.1C119.1,65.1,119,65.6,118.8,66z"/>
		<path class="st8" d="M124.5,62.3c-0.8,0-1.6,0.3-2.1,0.9c-0.7,0.7-1,1.7-1,2.7c0,0.4,0.1,0.8,0.3,1.1c0.2,0.3,0.5,0.6,0.8,0.8
			c0.4,0.2,0.8,0.3,1.2,0.3c0.5,0,1-0.1,1.5-0.4s0.9-0.8,1.1-1.3c0.3-0.6,0.4-1.2,0.4-1.8c0-0.6-0.2-1.2-0.6-1.7
			C125.7,62.5,125.1,62.3,124.5,62.3z M125.6,65.7l-0.3,0.7l-0.4,0.6l-0.6,0.4h-0.6c-0.4,0-0.7-0.1-1-0.4s-0.4-0.8-0.4-1.2
			c0-0.3,0.1-0.6,0.2-0.9c0.1-0.4,0.2-0.7,0.4-1l0.7-0.6l0.8-0.2c0.4,0,0.7,0.1,1,0.4s0.4,0.8,0.4,1.2
			C125.8,65,125.8,65.4,125.6,65.7z"/>
		<path class="st8" d="M134.8,62.4l-1,0.3c-0.3,0.2-0.7,0.5-0.9,0.8c-0.1-0.3-0.2-0.6-0.5-0.8c-0.3-0.2-0.6-0.3-0.9-0.3l-0.9,0.2
			l-0.9,0.8l0.2-0.9H129l-1.2,5.6h0.7l0.5-2.6c0.1-0.5,0.3-0.9,0.5-1.3c0.2-0.3,0.4-0.5,0.7-0.7l0.9-0.3l0.4,0.2
			c0.1,0.1,0.2,0.2,0.2,0.4c0,0.2-0.1,0.3-0.1,0.5l-0.8,3.8h1l0.6-2.7c0.1-0.5,0.2-0.9,0.4-1.3c0.2-0.3,0.4-0.5,0.7-0.7l0.9-0.3
			l0.5,0.2c0.1,0.1,0.2,0.2,0.2,0.4c0,0.2,0,0.5-0.1,0.7l-0.8,3.7h1l0.8-3.6c0.1-0.3,0.1-0.6,0.1-0.9s-0.1-0.7-0.3-0.9
			C135.6,62.5,135.2,62.4,134.8,62.4z"/>
		<path class="st8" d="M141,62.4l-0.8,0.2l-0.8,0.6l0.6-2.8h-1l-1.6,7.7h0.8l0.2-1.1c0.1,0.4,0.4,0.7,0.7,0.9c0.3,0.2,0.6,0.3,1,0.3
			h0.7l0.7-0.4l0.6-0.7c0.2-0.3,0.4-0.6,0.5-1c0.1-0.5,0.2-0.9,0.2-1.4c0-0.6-0.1-1.2-0.5-1.7C142,62.6,141.5,62.4,141,62.4z
			 M141.5,66c-0.1,0.4-0.4,0.8-0.7,1.1c-0.2,0.2-0.6,0.4-0.9,0.4c-0.3,0-0.6-0.2-0.8-0.4c-0.2-0.3-0.3-0.7-0.3-1.1v-0.2
			c0-0.4,0.1-0.8,0.3-1.1c0.1-0.4,0.4-0.9,0.7-1.2c0.2-0.2,0.6-0.4,0.9-0.4c0.3,0,0.6,0.2,0.8,0.4c0.2,0.3,0.3,0.7,0.3,1.1
			C141.8,65.1,141.7,65.6,141.5,66z"/>
		<path class="st8" d="M148.8,62.9c-0.5-0.3-1-0.5-1.6-0.5s-1.1,0.1-1.6,0.4c-0.5,0.4-0.9,0.9-1,1.5h1c0.1-0.3,0.3-0.6,0.6-0.8
			c0.3-0.2,0.6-0.3,1-0.3s0.7,0.1,1,0.3c0.1,0.1,0.2,0.3,0.2,0.5s0,0.4-0.1,0.6l-1.3,0.2h-1.2l-0.9,0.3l-0.6,0.6
			c-0.1,0.2-0.2,0.5-0.2,0.8c0,0.5,0.2,0.9,0.5,1.2c0.3,0.3,0.7,0.5,1.2,0.5l1-0.2l0.9-0.6c0,0.3,0.1,0.5,0.2,0.8h1
			c-0.1-0.3-0.1-0.5-0.1-0.8c0-0.4,0-0.7,0.1-1.1l0.3-1.4c0.1-0.3,0.1-0.7,0.1-1C149.4,63.5,149.2,63.1,148.8,62.9z M147.7,66.5
			c-0.2,0.3-0.4,0.5-0.7,0.7l-0.9,0.3c-0.3,0-0.6-0.1-0.8-0.3c-0.2-0.2-0.3-0.4-0.3-0.7c0-0.2,0.1-0.4,0.2-0.6l0.5-0.4l1.2-0.2h1.2
			C148.1,65.7,147.9,66.1,147.7,66.5z"/>
		<path class="st8" d="M152.4,63.2l0.8-0.2c0.3,0,0.6,0.1,0.9,0.3c0.2,0.2,0.4,0.5,0.4,0.8h0.9c0-0.5-0.2-1-0.6-1.3
			c-0.5-0.4-1-0.5-1.6-0.5c-0.5,0-1.1,0.1-1.5,0.5c-0.3,0.3-0.5,0.7-0.5,1.1c0,0.2,0.1,0.5,0.2,0.7l0.5,0.5l1,0.5l1,0.5
			c0.1,0.1,0.2,0.3,0.2,0.5s-0.1,0.5-0.3,0.6c-0.3,0.2-0.6,0.3-0.9,0.3l-0.8-0.2c-0.2-0.1-0.4-0.3-0.5-0.5s-0.1-0.5-0.1-0.7h-0.9
			c-0.1,0.5,0.1,1,0.5,1.4c0.5,0.3,1,0.5,1.6,0.5l1.2-0.2c0.3-0.1,0.6-0.3,0.8-0.6c0.2-0.2,0.3-0.5,0.3-0.8c0-0.4-0.2-0.8-0.5-1.1
			l-1.4-0.7l-0.8-0.4c-0.1-0.1-0.2-0.3-0.2-0.5C152.1,63.5,152.3,63.3,152.4,63.2z"/>
		<path class="st8" d="M163.7,62.4l-0.8,0.2l-0.9,0.7l0.2-0.8h-0.9l-1.6,7.7l0.9,0.1l0.6-3c0.3,0.6,0.9,1,1.6,1l0.9-0.2l0.8-0.6
			c0.3-0.4,0.5-0.8,0.7-1.2c0.2-0.5,0.3-1.1,0.3-1.6c0.1-0.6-0.1-1.2-0.5-1.7C164.7,62.6,164.2,62.4,163.7,62.4z M164.1,66.6
			c-0.2,0.5-0.7,0.9-1.3,0.9l-0.7-0.2c-0.2-0.2-0.3-0.4-0.4-0.6c-0.1-0.3-0.1-0.6-0.1-0.9h-0.1c0.1-0.3,0.2-0.6,0.3-0.9
			s0.2-0.6,0.4-0.9l0.6-0.6l0.7-0.2c0.3,0,0.6,0.2,0.8,0.4c0.2,0.3,0.3,0.7,0.3,1.1C164.6,65.4,164.5,66,164.1,66.6z"/>
		<path class="st8" d="M171.5,63.1c-0.5-0.3-1-0.5-1.6-0.5s-1.1,0.1-1.6,0.4c-0.4,0.3-0.7,0.8-0.9,1.3h1c0.1-0.3,0.3-0.6,0.6-0.8
			c0.3-0.2,0.6-0.3,1-0.3s0.7,0.1,1,0.3c0.1,0.1,0.2,0.3,0.2,0.5s0,0.4-0.1,0.6l-1.3,0.2h-1.2l-0.9,0.3l-0.6,0.6
			c-0.1,0.2-0.2,0.5-0.2,0.8c0,0.5,0.2,0.9,0.5,1.2c0.3,0.3,0.7,0.5,1.2,0.5l1-0.2l0.9-0.6c0,0.3,0,0.7,0.1,1h1
			c-0.1-0.3-0.1-0.5-0.1-0.8c0-0.4,0-0.7,0.1-1.1l0.3-1.4c0.1-0.3,0.1-0.7,0.1-1C172.1,63.7,171.9,63.3,171.5,63.1z M170.4,66.5
			c-0.2,0.3-0.4,0.5-0.7,0.7l-0.9,0.3c-0.3,0-0.6-0.1-0.8-0.3c-0.2-0.2-0.3-0.4-0.3-0.7c0-0.2,0.1-0.4,0.2-0.6l0.5-0.4l1.2-0.2h1.2
			C170.8,65.7,170.6,66.1,170.4,66.5z"/>
		<path class="st8" d="M175.9,62.6c-0.3,0.3-0.6,0.6-0.8,1l0.2-1.1h-0.8l-1.2,5.6l0.9-0.1l0.5-2.2c0.1-0.7,0.4-1.4,0.8-2
			c0.2-0.3,0.6-0.5,1-0.6l0.5,0.2l0.4-0.9l-0.7-0.2C176.5,62.3,176.2,62.4,175.9,62.6z"/>
		<path class="st8" d="M182.1,63.1c-0.5-0.3-1-0.5-1.6-0.5s-1.1,0.1-1.6,0.4c-0.4,0.3-0.7,0.8-0.9,1.3h1c0.1-0.3,0.3-0.6,0.6-0.8
			c0.3-0.2,0.6-0.3,1-0.3s0.7,0.1,1,0.3c0.1,0.1,0.2,0.3,0.2,0.5s0,0.4-0.1,0.6l-1.3,0.2h-1.2l-0.9,0.3l-0.6,0.6
			c-0.1,0.2-0.2,0.5-0.2,0.8c0,0.5,0.2,0.9,0.5,1.2c0.3,0.3,0.7,0.5,1.2,0.5l1-0.2l1-0.6c0,0.3,0,0.7,0,1h1
			c-0.1-0.3-0.1-0.5-0.1-0.8c0-0.4,0-0.7,0.1-1.1l0.3-1.4c0.1-0.3,0.1-0.7,0.1-1C182.7,63.7,182.5,63.3,182.1,63.1z M181.2,66.5
			c-0.2,0.3-0.4,0.5-0.7,0.7l-0.9,0.3c-0.3,0-0.6-0.1-0.8-0.3c-0.2-0.2-0.3-0.4-0.3-0.7c0-0.2,0.1-0.4,0.2-0.6l0.5-0.4l1.2-0.2h1.2
			C181.6,65.7,181.4,66.1,181.2,66.5z"/>
		<path class="st8" d="M192.3,63.1c-0.5-0.3-1-0.5-1.6-0.5s-1.1,0.1-1.6,0.4c-0.4,0.3-0.7,0.8-0.9,1.3h1c0.1-0.3,0.3-0.6,0.6-0.8
			c0.3-0.2,0.6-0.3,1-0.3s0.7,0.1,1,0.3c0.1,0.1,0.2,0.3,0.2,0.5s0,0.4-0.1,0.6l-1.3,0.2h-1.2l-0.9,0.3l-0.6,0.6
			c-0.1,0.2-0.2,0.5-0.2,0.8c0,0.5,0.2,0.9,0.5,1.2c0.3,0.3,0.7,0.5,1.2,0.5l1-0.2l1-0.6c0,0.3,0,0.7,0,1h1
			c-0.1-0.3-0.1-0.5-0.1-0.8c0-0.4,0-0.7,0.1-1.1l0.3-1.4c0.1-0.3,0.1-0.7,0.1-1C192.9,63.7,192.7,63.3,192.3,63.1z M191.4,66.5
			c-0.2,0.3-0.4,0.5-0.7,0.7l-0.9,0.3c-0.3,0-0.6-0.1-0.8-0.3c-0.2-0.2-0.3-0.4-0.3-0.7c0-0.2,0.1-0.4,0.2-0.6l0.5-0.4l1.2-0.2h1.2
			C191.8,65.7,191.6,66.1,191.4,66.5z"/>
		<path class="st8" d="M199,63.3c-0.3-0.6-1-1-1.7-1c-0.5,0-0.9,0.1-1.3,0.4c-0.5,0.3-0.8,0.7-1.1,1.2s-0.5,1.1-0.5,1.7
			c0,0.7,0.2,1.3,0.6,1.8c0.4,0.4,0.9,0.6,1.4,0.6c0.6,0,1.2-0.3,1.6-0.8v0.5c-0.1,0.5-0.2,0.9-0.5,1.3c-0.3,0.3-0.8,0.5-1.2,0.4
			h-0.7l-0.3-0.3c-0.1-0.2-0.1-0.3-0.1-0.5h-1l0.2,0.2c0,0.3,0,0.6,0.2,0.8c0.2,0.2,0.4,0.4,0.7,0.5l1.2,0.2c0.4,0,0.8-0.1,1.2-0.3
			c0.3-0.2,0.6-0.5,0.8-0.8c0.2-0.4,0.4-0.9,0.5-1.4l1.1-5.4h-0.9L199,63.3z M198.3,66c-0.2,0.4-0.4,0.7-0.8,1
			c-0.3,0.2-0.6,0.3-0.9,0.3l-0.6-0.2c-0.2-0.1-0.4-0.4-0.5-0.6c-0.1-0.3-0.1-0.6-0.1-0.9c0-0.2,0.1-0.5,0.2-0.7
			c0.1-0.3,0.2-0.6,0.4-0.9l0.6-0.6l0.7-0.2c0.3,0,0.7,0.1,0.9,0.4c0.3,0.3,0.4,0.7,0.4,1.1C198.6,65.1,198.5,65.6,198.3,66z"/>
		<path class="st8" d="M205.1,65c-0.1,0.3-0.2,0.7-0.3,1l-0.4,0.8l-0.7,0.5l-0.8,0.2l-0.6-0.2c-0.1-0.1-0.2-0.3-0.2-0.5
			s0-0.5,0.1-0.7l0.7-3.6H202l-0.7,3.2c-0.1,0.4-0.2,0.8-0.2,1.2c0,0.3,0.1,0.7,0.4,0.9c0.3,0.3,0.6,0.4,1,0.4
			c0.8,0,1.6-0.4,2.1-1.1l-0.2,1.1h0.9l1.2-5.6h-0.9L205.1,65z"/>
		<path class="st8" d="M212.1,63.1c-0.5-0.3-1-0.5-1.6-0.5s-1.1,0.1-1.6,0.4c-0.4,0.3-0.7,0.8-0.9,1.3h1c0.1-0.3,0.3-0.6,0.6-0.8
			c0.3-0.2,0.6-0.3,1-0.3s0.7,0.1,1,0.3c0.1,0.1,0.2,0.3,0.2,0.5s0,0.4-0.1,0.6l-1.3,0.2h-1.2l-0.9,0.3l-0.6,0.6
			c-0.1,0.2-0.2,0.5-0.2,0.8c0,0.5,0.2,0.9,0.5,1.2c0.3,0.3,0.7,0.5,1.2,0.5l1-0.2l1-0.6c0,0.3,0,0.7,0,1h1
			c-0.1-0.3-0.1-0.5-0.1-0.8c0-0.4,0-0.7,0.1-1.1l0.3-1.4c0.1-0.3,0.1-0.7,0.1-1C212.7,63.7,212.5,63.3,212.1,63.1z M211.2,66.5
			c-0.2,0.3-0.4,0.5-0.7,0.7l-0.9,0.3c-0.3,0-0.6-0.1-0.8-0.3c-0.2-0.2-0.3-0.4-0.3-0.7c0-0.2,0.1-0.4,0.2-0.6l0.5-0.4l1.2-0.2h1.1
			C211.5,65.7,211.4,66.1,211.2,66.5z"/>
		<path class="st9" d="M19.5,53.2c1.3,0.9,2.7,1.6,4.2,2.1c7.6,2.2,15.5-2.1,17.8-9.7C31.8,45.3,24.6,48,19.5,53.2z"/>
		<path class="st9" d="M41.9,39.2c-0.2-0.2-0.2-0.5-0.3-0.8C31.7,39,23,37,17.3,31.9c-0.7,0.8-1.4,1.7-1.9,2.7
			C20.7,38,29.6,39.8,41.9,39.2z"/>
		<path class="st9" d="M42,40.9v-0.8c-10.2,0.7-19.6,0-27.8-3.3c-0.4,1.2-0.7,2.5-0.8,3.8C23,41,32.4,41.2,42,40.9z"/>
		<path class="st9" d="M41.4,37.4c-1.9-5.8-7.4-9.7-13.5-9.7c-3,0-5.9,0.9-8.5,2.5C23.6,35.6,31.2,37.8,41.4,37.4z"/>
		<path class="st9" d="M13.6,43.1c0,1.3,0.3,2.5,0.8,3.7c7.9-3.3,17.4-4.2,27.6-3.9V42h0.1C32.6,41.6,23.1,41.9,13.6,43.1z"/>
		<path class="st9" d="M15.6,49.2c0.5,0.9,1.3,1.8,2.1,2.5c4.8-4.7,12.8-7.1,24.1-7.2c0.1-0.2,0.1-0.5,0.1-0.7
			C29.9,43.3,19.6,45.6,15.6,49.2z"/>
		<path class="st9" d="M27.8,27.7C27.9,27.7,27.9,27.7,27.8,27.7C27.9,27.7,27.9,27.7,27.8,27.7L27.8,27.7z"/>
		<path class="st7" d="M210,24.2h0.7l0.4,0.5l0.5,0.7h0.8l-0.4-0.7l-0.4-0.5l-0.4-0.3l0.7-0.3c0.1-0.2,0.2-0.4,0.2-0.6
			s0-0.3-0.1-0.5l-0.4-0.3h-2.2v3.4h0.6L210,24.2L210,24.2z M210.1,23.1h1.3c0.1,0.2,0.1,0.3,0,0.5h-1.3V23.1z"/>
		<path class="st5" d="M151.4,34.9c-3.2-1.7-8,0.1-10.7,3.8v0.1c-2.7,3.8-2.1,8.2,1.1,9.7s8-0.3,10.7-4S154.6,36.6,151.4,34.9z"/>
		<path class="st5" d="M204.8,34.8c-3.2-1.7-8,0.1-10.7,3.8l-0.1,0.1c-2.7,3.8-2.4,8.2,1,9.7s8.3-0.3,10.9-4
			C208.5,40.7,208,36.5,204.8,34.8z"/>
	</g>
	<g>
		<path class="st0" d="M376.7,54.4c-0.4,0-0.7,0.1-0.9,0.4c-0.2,0.2-0.3,0.6-0.3,1s0.1,0.8,0.3,1c0.2,0.2,0.5,0.4,0.9,0.4
			s0.7-0.1,0.9-0.3c0.2-0.2,0.3-0.6,0.3-1s-0.1-0.8-0.3-1C377.4,54.5,377.1,54.4,376.7,54.4z"/>
		<rect x="288.1" y="29" class="st0" width="2.7" height="25.1"/>
		<path class="st0" d="M387.4,54.5c-0.4,0-0.6,0.1-0.9,0.4c-0.2,0.2-0.3,0.6-0.3,1s0.1,0.7,0.3,0.9c0.2,0.2,0.5,0.3,0.9,0.3
			s0.7-0.1,0.9-0.4c0.2-0.2,0.4-0.5,0.4-0.9s-0.1-0.7-0.4-0.9C388.1,54.6,387.8,54.5,387.4,54.5z"/>
		<path class="st0" d="M339.4,54.4c-0.3,0-0.5,0.1-0.7,0.2c-0.1,0.1-0.2,0.3-0.2,0.6c0,0.2,0.1,0.4,0.2,0.5c0.2,0.1,0.4,0.2,0.7,0.2
			c0.3,0,0.5-0.1,0.6-0.2c0.2-0.1,0.2-0.3,0.2-0.5c0-0.3-0.1-0.4-0.2-0.6C339.9,54.5,339.7,54.4,339.4,54.4z"/>
		<path class="st0" d="M274,16.2c-13.6,0-24.6,11.5-24.6,25.5s11.1,25.5,24.6,25.5c13.6,0,24.7-11.5,24.7-25.5S287.6,16.2,274,16.2z
			 M268.5,36.6h-6v-4.2h-1.7v18.2h1.7v-3.9h6v5.5c-0.1,2-1.3,3-3.8,3.2H258c-1.8-0.4-3-1.3-3.3-2.8v-23c0.2-1.3,1.4-1.9,3-2h7.9
			c1.7,0.2,2.6,0.8,2.9,2.2V36.6z M284.3,39c-0.2,1.5-1.7,2.3-1.8,2.3c1,0.2,1.8,1.3,1.8,2.4v11.6h-6V44.6c0-0.4-0.4-0.7-0.9-0.7
			h-0.8v11.5h-6V27.7h9.8c2.3,0.2,3.7,1.2,3.8,3.1V39H284.3z M292.5,55.4h-6V27.7h6V55.4z"/>
		<path class="st0" d="M359.5,40.3c0-0.6-0.6-0.9-1.8-0.9h-1.1v1.8h1.5C359.1,41.2,359.5,40.9,359.5,40.3z"/>
		<path class="st0" d="M338,57.6c0,0.1,0.1,0.3,0.4,0.4s0.6,0.1,1.1,0.1c0.4,0,0.8,0,1-0.1s0.4-0.2,0.4-0.4c0-0.2-0.1-0.3-0.3-0.4
			c-0.2-0.1-0.6-0.1-1.1-0.1s-0.9,0-1.1,0.1C338.1,57.3,338,57.5,338,57.6z"/>
		<path class="st0" d="M276.7,38.8h0.7c0.6,0.1,1.1-0.4,1-0.9v-5.5h-1.7V38.8z"/>
		<path class="st0" d="M265.5,29h-7.6c-1.4,0-1.4,0.8-1.4,0.8v22.6c0.1,0.9,1,1.5,1.9,1.6h6.4c1.5,0,2.2-0.8,2.2-1.9V48h-2.9v3
			c0,0.7-0.5,0.9-1.3,0.9h-2.3c-1.2,0-1.3-0.7-1.3-1v-19c0-0.8,0.5-0.8,1.1-0.8h2.9c0.6,0,1.1,0,1.1,0.8v3.4h2.7v-5.4
			C266.9,29,265.5,29,265.5,29z"/>
		<path class="st0" d="M280.4,29h-8v25.1h2.7V42.6h2.8c0.9,0,2.1,0.7,2.2,1.5V54h2.7V43.4c0-0.7-1.6-1.8-2.5-2.1
			c1-0.2,2.5-1.3,2.5-2.4v-8.1C282.7,30,282.1,29,280.4,29z M280,38.4c0,0.9-1,1.7-2,1.7h-2.9v-9h4.2c0.5,0,0.8,0,0.8,0.6v6.7H280z"
			/>
		<path class="st0" d="M326.9,54.5c-0.4,0-0.7,0.1-0.9,0.4c-0.2,0.2-0.3,0.5-0.3,0.9s0.1,0.7,0.4,0.9c0.3,0.2,0.6,0.4,0.9,0.4
			c0.4,0,0.6-0.1,0.8-0.3c0.2-0.2,0.3-0.5,0.3-0.9s-0.1-0.7-0.3-0.9C327.5,54.6,327.2,54.5,326.9,54.5z"/>
		<path class="st0" d="M401.6,54.5c-0.4,0-0.7,0.1-0.9,0.4c-0.2,0.2-0.3,0.6-0.3,1s0.1,0.7,0.3,0.9c0.2,0.2,0.5,0.3,0.9,0.3
			s0.7-0.1,0.9-0.4c0.2-0.2,0.4-0.5,0.4-0.9s-0.1-0.7-0.4-0.9C402.3,54.6,402,54.5,401.6,54.5z"/>
		<path class="st0" d="M308.1,53.2c-0.3,0-0.6,0-0.6,0.1c-0.1,0-0.1,0.2-0.1,0.3V55h1c0.5,0,0.9-0.1,1.1-0.2s0.3-0.3,0.3-0.7
			s-0.1-0.6-0.4-0.7C309.2,53.2,308.7,53.2,308.1,53.2z"/>
		<path class="st0" d="M406.7,54.4c-0.3,0-0.6,0.1-0.8,0.3c-0.2,0.2-0.3,0.4-0.3,0.8h2.2l0,0c0-0.3-0.1-0.6-0.3-0.8
			C407.3,54.5,407.1,54.4,406.7,54.4z"/>
		<path class="st0" d="M394.9,39.4h-1v1.8h1.5c0.9,0,1.4-0.3,1.4-0.9C396.7,39.7,396.1,39.4,394.9,39.4z"/>
		<path class="st0" d="M328.7,39.6c-0.3-0.1-0.6-0.2-1-0.2H326V41h1.5c1.1,0,1.6-0.3,1.6-0.8C329.1,40,328.9,39.8,328.7,39.6z"/>
		<path class="st10" d="M356.6,43.1h1.8c0.8,0,1.6-0.1,2.1-0.2c0.6-0.1,1-0.3,1.4-0.6c0.3-0.2,0.6-0.5,0.7-0.9
			c0.1-0.3,0.2-0.7,0.2-1c0-0.9-0.3-1.6-1.1-2.1c-0.8-0.5-1.9-0.7-3.5-0.7h-5.1v8.1h3.5V43.1z M356.6,39.4h1.1
			c1.2,0,1.8,0.3,1.8,0.9c0,0.6-0.5,0.9-1.4,0.9h-1.5V39.4z"/>
		<path class="st10" d="M373.1,45c0.9-0.6,1.3-1.5,1.3-2.8v-4.6h-3.5v4.9c0,0.5-0.1,0.9-0.4,1.1c-0.3,0.2-0.7,0.4-1.3,0.4
			c-0.6,0-1-0.1-1.2-0.3s-0.4-0.6-0.4-1.1v-4.9h-3.5v4.6c0,1.3,0.4,2.3,1.3,2.9c0.9,0.6,2.2,0.9,3.9,0.9
			C371,45.9,372.3,45.6,373.1,45z"/>
		<path class="st10" d="M379.5,43.8c0-1,0-1.8-0.1-2.3l-0.1-1.2l0,0l2,5.2h2.5l1.9-5.2l0,0l-0.2,1.5c0,0.3,0,0.6,0,1s0,0.8,0,1.3
			s0,1,0,1.5h3.2v-8.1h-4.2l-1.9,5.1l-1.9-5.1h-4.2v8.1h3.1L379.5,43.8L379.5,43.8z"/>
		<path class="st10" d="M311,43.9c-1.4,0-2.1-0.8-2.1-2.2c0-0.7,0.2-1.2,0.5-1.7s0.8-0.7,1.5-0.7s1.7,0.3,1.8,0.9h3.3
			c-0.2-0.9-0.5-1.2-1.3-1.9c-0.8-0.6-2.1-1-4-1c-0.8,0-1.7,0.1-2.5,0.4c-0.8,0.3-1.5,0.8-2.1,1.4c-0.5,0.7-0.8,1.5-0.8,2.4
			s0.3,1.6,0.7,2.2c0.4,0.6,1.1,1.1,2,1.5c0.9,0.3,1.9,0.5,3,0.5c1.5,0,2.7-0.3,3.6-0.9c0.9-0.6,1.4-1.1,1.5-2h-3.4
			C312.6,43.8,311.8,43.9,311,43.9z"/>
		<path class="st10" d="M405.8,44c-0.4,0-0.7-0.1-1-0.2c-0.3-0.1-0.5-0.3-0.6-0.7h-3.4c0.1,0.8,0.5,1.5,1.5,2c0.9,0.5,2,0.8,3.3,0.8
			c0.9,0,1.7-0.1,2.5-0.3s1.4-0.5,1.8-0.9c0.5-0.4,0.7-1,0.7-1.6c0-0.7-0.3-1.2-0.9-1.6c-0.6-0.4-1.5-0.7-2.8-0.9
			c-0.4-0.1-0.8-0.1-1.2-0.2c-0.4-0.1-0.7-0.2-1-0.3c-0.2-0.1-0.4-0.3-0.3-0.4c0-0.3,0.4-0.4,1.1-0.4c0.9,0,1.4,0.2,1.4,0.7h3.4
			c-0.1-0.6-0.4-1.1-0.8-1.5c-0.5-0.4-1-0.7-1.6-0.8c-0.6-0.2-1.3-0.2-2.1-0.2c-1.4,0-2.6,0.2-3.4,0.7s-1.2,1-1.3,1.8
			c0,0.6,0.2,1.1,0.5,1.4c0.4,0.4,0.8,0.6,1.4,0.8c0.5,0.2,1.3,0.4,2.2,0.5c0.7,0.1,1.3,0.3,1.6,0.4c0.4,0.1,0.5,0.3,0.5,0.5
			C407.1,43.8,406.7,44,405.8,44z"/>
		<rect x="339.2" y="37.5" class="st10" width="3.5" height="8.1"/>
		<path class="st10" d="M332.4,44c0-0.8-0.3-1.3-0.5-1.5c-0.3-0.2-0.7-0.5-1.4-0.7c0.5-0.1,0.9-0.3,1.3-0.7c0.3-0.3,0.5-0.8,0.5-1.3
			c0-0.7-0.3-1.3-0.9-1.7s-1.9-0.6-3.7-0.6h-5.2v8.1h3.5v-2.8h0.5c0.8,0,1.4,0,1.8,0.1c0.3,0.1,0.5,0.2,0.6,0.5l0.3,2.2h3.5
			L332.4,44z M327.5,41H326v-1.6h1.7c0.4,0,0.7,0.1,1,0.2c0.3,0.1,0.4,0.3,0.4,0.6C329.1,40.8,328.6,41,327.5,41z"/>
		<path class="st10" d="M400.1,40.4c0-0.9-0.3-1.6-1.1-2.1c-0.8-0.5-1.9-0.7-3.5-0.7h-5.1v8.1h3.5v-2.5h1.8c0.8,0,1.5-0.1,2.1-0.2
			c0.6-0.1,1-0.3,1.4-0.6c0.3-0.2,0.6-0.5,0.7-0.9S400.1,40.8,400.1,40.4z M395.4,41.2h-1.5v-1.8h1c1.2,0,1.8,0.3,1.8,0.9
			C396.7,40.9,396.3,41.2,395.4,41.2z"/>
		<path class="st10" d="M318.9,45.6c0.9,0,1.6-0.5,1.6-1.2s-0.7-1.2-1.6-1.2s-1.6,0.5-1.6,1.2S318,45.6,318.9,45.6z"/>
		<path class="st10" d="M335.8,43.2c-0.9,0-1.6,0.5-1.6,1.2s0.7,1.2,1.6,1.2s1.6-0.5,1.6-1.2C337.4,43.8,336.7,43.2,335.8,43.2z"/>
		<path class="st10" d="M345.8,43.2c-0.9,0-1.6,0.5-1.6,1.2s0.7,1.2,1.6,1.2s1.6-0.5,1.6-1.2C347.4,43.8,346.7,43.2,345.8,43.2z"/>
		<path class="st9" d="M265.7,27.7h-7.9c-1.5,0.1-2.8,0.7-3,2v22.9c0.3,1.6,1.4,2.4,3.3,2.8h6.7c2.5-0.2,3.7-1.2,3.8-3.2v-5.5h-6
			v3.9h-1.7V32.4h1.7v4.2h6v-6.8C268.3,28.4,267.4,27.9,265.7,27.7z M266.9,35.3h-2.7v-3.4c0-0.8-0.5-0.8-1.1-0.8h-2.9
			c-0.6,0-1.1,0-1.1,0.8v19c0,0.2,0.1,1,1.3,1h2.3c0.8,0,1.3-0.2,1.3-0.9v-3h2.8v4.1c0,1.2-0.7,1.9-2.2,1.9h-6.4
			c-0.9-0.2-1.8-0.8-1.9-1.6V29.8c0,0,0-0.8,1.4-0.8h7.6c0,0,1.4,0,1.4,1v5.3H266.9z"/>
		<path class="st9" d="M286.5,55.4h6V27.7h-6V55.4z M288.1,29h2.7v25.1h-2.7V29z"/>
		<path class="st9" d="M274,14.3c-14.9,0-27,12.3-27,27.4c0,15,12.1,27.4,27,27.4s26.9-12.3,26.9-27.4
			C300.9,26.7,288.9,14.3,274,14.3z M274,67.2c-13.6,0-24.6-11.5-24.6-25.5s11.1-25.5,24.6-25.5c13.6,0,24.7,11.5,24.7,25.5
			S287.6,67.2,274,67.2z"/>
		<path class="st9" d="M280.5,27.7h-9.8v27.7h6V43.9h0.8c0.5,0,0.9,0.3,0.9,0.7v10.8h6V43.8c0-1.1-0.9-2.2-1.8-2.4
			c0.1,0,1.6-0.8,1.8-2.3v-8.3C284.2,28.9,282.8,27.8,280.5,27.7z M282.7,38.9c-0.1,1.1-1.6,2.2-2.5,2.4c0.9,0.3,2.5,1.4,2.5,2.1V54
			H280v-9.9c-0.1-0.9-1.3-1.5-2.2-1.5H275V54h-2.7V29h8c1.7,0,2.3,1,2.3,1.8v8.1C282.6,38.9,282.7,38.9,282.7,38.9z"/>
		<path class="st9" d="M279.2,31.1H275v9h2.9c1,0,2-0.8,2-1.7v-6.6C280,31.2,279.7,31.1,279.2,31.1z M278.3,37.9
			c0.1,0.5-0.3,1-1,0.9h-0.7v-6.4h1.7V37.9z"/>
		<path class="st10" d="M349.8,54.2c-0.2,0-0.5,0.1-0.7,0.2s-0.3,0.3-0.5,0.5v-0.7c-0.3,0-0.5,0.1-0.7,0.1s-0.4,0-0.6,0v0.2
			c0.3,0,0.5,0,0.6,0.1s0.1,0.2,0.1,0.4v1.7c0,0.1,0,0.2-0.1,0.2c-0.1,0.1-0.2,0.1-0.4,0.1h-0.2v0.3h2.2V57c-0.1,0-0.1,0-0.2,0l0,0
			c-0.3,0-0.4,0-0.5-0.1c-0.1,0-0.1-0.1-0.1-0.3v-1.1c0-0.4,0.1-0.6,0.2-0.8c0.2-0.2,0.4-0.3,0.6-0.3c0.1,0,0.1,0,0.1,0l0.1,0.1
			c0,0,0,0.1-0.1,0.1c0,0.1,0,0.1,0,0.2s0,0.1,0.1,0.2c0.1,0,0.2,0.1,0.3,0.1c0.1,0,0.2,0,0.3-0.1c0.1-0.1,0.1-0.2,0.1-0.2
			c0-0.2-0.1-0.3-0.2-0.4C350.3,54.2,350.1,54.2,349.8,54.2z"/>
		<path class="st10" d="M406.7,54.1c-0.5,0-1,0.1-1.4,0.5c-0.4,0.3-0.5,0.7-0.5,1.2s0.2,0.8,0.6,1.1c0.4,0.3,0.9,0.4,1.5,0.4
			c0.3,0,0.6,0,0.9-0.1s0.5-0.2,0.8-0.4l-0.2-0.2c-0.2,0.1-0.4,0.2-0.7,0.3c-0.2,0.1-0.4,0.1-0.6,0.1c-0.4,0-0.8-0.1-1-0.3
			c-0.2-0.2-0.4-0.5-0.4-0.9v-0.1h3l0,0c0-0.5-0.2-0.9-0.5-1.1C407.7,54.3,407.3,54.1,406.7,54.1z M407.8,55.5h-2.2
			c0-0.4,0.1-0.6,0.3-0.8c0.2-0.2,0.5-0.3,0.8-0.3s0.6,0.1,0.8,0.3C407.7,54.9,407.8,55.1,407.8,55.5L407.8,55.5z"/>
		<path class="st10" d="M323.3,56.9c-0.1,0-0.1-0.1-0.1-0.3v-1.1v-0.1c0-0.2,0-0.4,0-0.5s-0.1-0.2-0.1-0.3c-0.1-0.2-0.3-0.3-0.5-0.4
			s-0.4-0.1-0.7-0.1c-0.3,0-0.5,0.1-0.8,0.2s-0.5,0.3-0.7,0.5c-0.1-0.2-0.3-0.4-0.5-0.5s-0.5-0.2-0.8-0.2s-0.5,0.1-0.8,0.2
			c-0.2,0.1-0.5,0.3-0.7,0.5v-0.7c-0.2,0-0.4,0.1-0.6,0.1s-0.4,0-0.5,0h-0.2v0.2c0.3,0,0.5,0,0.6,0.1c0.1,0,0.1,0.1,0.1,0.3v1.8
			c0,0.1,0,0.2-0.1,0.3c-0.1,0-0.2,0.1-0.4,0.1h-0.2v0.3h2V57h-0.1c-0.2,0-0.3,0-0.4,0s-0.1-0.1-0.1-0.2v-1.1c0-0.3,0.1-0.6,0.4-0.8
			c0.2-0.2,0.5-0.3,0.8-0.3s0.5,0.1,0.6,0.2s0.2,0.3,0.2,0.6v1.4c0,0.1,0,0.2-0.1,0.3c-0.1,0.1-0.2,0.1-0.4,0.1h-0.1v0.3h1.9v-0.3
			h-0.2c-0.2,0-0.3,0-0.4,0c0,0-0.1-0.1-0.1-0.3v-1.1c0-0.3,0.1-0.5,0.3-0.7c0.3-0.2,0.5-0.3,0.8-0.3s0.5,0.1,0.6,0.2
			s0.2,0.3,0.2,0.6V57c0,0.1,0,0.2-0.1,0.3c-0.1,0-0.2,0.1-0.4,0.1h-0.1v0.3h1.9v-0.3h-0.2C323.5,57,323.4,57,323.3,56.9z"/>
		<path class="st10" d="M403.6,56.6v-3.8c-0.3,0-0.6,0-0.9,0.1c-0.3,0-0.5,0-0.7,0v0.2c0.4,0,0.7,0,0.8,0.1c0.1,0,0.1,0.1,0.1,0.3
			v1.3c-0.2-0.2-0.4-0.3-0.6-0.4s-0.5-0.1-0.8-0.1c-0.5,0-1,0.2-1.3,0.4c-0.4,0.3-0.5,0.7-0.5,1.2s0.2,0.8,0.5,1.1
			c0.3,0.3,0.8,0.4,1.3,0.4c0.3,0,0.6,0,0.8-0.1c0.2-0.1,0.5-0.2,0.7-0.4l0.1,0.6c0.1,0,0.3,0,0.5-0.1c0.2,0,0.5,0,0.8,0v-0.3
			c-0.3,0-0.5,0-0.6-0.1C403.6,56.8,403.6,56.8,403.6,56.6z M402.5,56.7c-0.2,0.2-0.6,0.4-0.9,0.4c-0.4,0-0.7-0.1-0.9-0.3
			c-0.2-0.2-0.3-0.5-0.3-0.9s0.1-0.7,0.3-1c0.2-0.2,0.5-0.4,0.9-0.4s0.7,0.1,0.9,0.3c0.2,0.2,0.4,0.5,0.4,0.9S402.8,56.4,402.5,56.7
			z"/>
		<path class="st10" d="M315.2,56.6v-2.5c-0.3,0-0.7,0.1-1.2,0.1h-0.1v0.2c0.3,0,0.5,0,0.5,0.1c0.1,0,0.1,0.1,0.1,0.3v1
			c0,0.3-0.1,0.5-0.4,0.8c-0.2,0.2-0.5,0.3-0.9,0.3c-0.3,0-0.5-0.1-0.6-0.2s-0.2-0.3-0.2-0.5v-2c-0.2,0-0.4,0.1-0.6,0.1
			s-0.5,0-0.8,0v0.2c0.3,0,0.5,0,0.5,0.1c0.1,0,0.1,0.1,0.1,0.3V56c0,0.3,0,0.4,0.1,0.6c0,0.1,0.1,0.2,0.1,0.3
			c0.1,0.2,0.3,0.3,0.5,0.4s0.5,0.2,0.7,0.2c0.3,0,0.5-0.1,0.8-0.2c0.2-0.1,0.5-0.3,0.7-0.5v0.7c0.2,0,0.5-0.1,0.7-0.1s0.4,0,0.6,0
			h0.1v-0.3c-0.3,0-0.5,0-0.6-0.1C315.2,56.9,315.2,56.8,315.2,56.6z"/>
		<path class="st10" d="M310,53.1c-0.2-0.1-0.4-0.1-0.6-0.2c-0.2,0-0.6-0.1-1-0.1h-2.9v0.3c0.5,0,0.8,0,0.9,0.1
			c0.1,0,0.1,0.2,0.1,0.3v2.9c0,0.2,0,0.3-0.1,0.4s-0.3,0.1-0.6,0.1h-0.2v0.3h2.8v-0.3c-0.5,0-0.7,0-0.9-0.1c-0.1,0-0.1-0.2-0.1-0.4
			v-1.2h1.4c0.7,0,1.2-0.1,1.6-0.3c0.4-0.2,0.5-0.5,0.5-0.9c0-0.2-0.1-0.4-0.2-0.6C310.5,53.3,310.3,53.2,310,53.1z M309.5,54.8
			c-0.2,0.1-0.6,0.2-1.1,0.2h-1v-1.4c0-0.2,0-0.3,0.1-0.3s0.3-0.1,0.6-0.1c0.7,0,1.1,0.1,1.4,0.2s0.4,0.4,0.4,0.7
			C309.8,54.5,309.7,54.7,309.5,54.8z"/>
		<path class="st10" d="M346.6,56.8c-0.1,0.1-0.2,0.2-0.4,0.2c-0.2,0-0.3,0-0.3-0.1c-0.1-0.1-0.1-0.2-0.1-0.3v-2h1.1v-0.3h-1.1V53
			h-0.3c-0.1,0.4-0.2,0.6-0.4,0.8c-0.2,0.2-0.5,0.3-0.8,0.4v0.3h0.8v1.9c0,0.3,0.1,0.5,0.2,0.7s0.4,0.2,0.7,0.2
			c0.3,0,0.6-0.1,0.8-0.3c0.2-0.2,0.3-0.4,0.3-0.7h-0.3C346.7,56.5,346.7,56.7,346.6,56.8z"/>
		<path class="st10" d="M336.3,56.9c0,0-0.1-0.1-0.1-0.3v-1.1c0-0.3,0-0.5-0.1-0.6c0-0.1-0.1-0.2-0.2-0.3s-0.3-0.2-0.5-0.3
			s-0.4-0.1-0.7-0.1c-0.3,0-0.5,0.1-0.8,0.2c-0.2,0.1-0.5,0.3-0.7,0.5v-0.7c-0.2,0-0.5,0.1-0.7,0.1s-0.4,0-0.5,0h-0.1h-0.1v0.2
			c0.3,0,0.6,0,0.6,0.1c0.1,0,0.1,0.1,0.1,0.3v1.8c0,0.1,0,0.2-0.1,0.3c-0.1,0-0.2,0.1-0.4,0.1h-0.2v0.3h2.1v-0.3h-0.1
			c-0.2,0-0.4,0-0.4,0c-0.1,0-0.1-0.1-0.1-0.3v-1c0-0.3,0.1-0.5,0.4-0.8c0.3-0.2,0.5-0.3,0.9-0.3c0.3,0,0.5,0.1,0.6,0.2
			c0.2,0.1,0.2,0.3,0.2,0.6v1.4c0,0.1,0,0.2-0.1,0.3c-0.1,0.1-0.2,0.1-0.4,0.1h-0.2v0.3h2v-0.3h-0.2C336.5,57,336.4,57,336.3,56.9z"
			/>
		<path class="st10" d="M330,52.9c-0.1,0.1-0.1,0.2-0.1,0.2c0,0.1,0,0.2,0.1,0.2c0.1,0.1,0.2,0.1,0.3,0.1c0.1,0,0.2,0,0.3-0.1
			c0.1-0.1,0.1-0.1,0.1-0.2s0-0.2-0.1-0.2c-0.1-0.1-0.2-0.1-0.3-0.1S330.1,52.8,330,52.9z"/>
		<path class="st10" d="M330.9,56.9c0,0-0.1-0.1-0.1-0.3v-2.5c-0.2,0-0.5,0.1-0.7,0.1s-0.5,0-0.8,0v0.2c0.3,0,0.5,0,0.6,0.1
			c0.1,0,0.1,0.1,0.1,0.3v1.8c0,0.1,0,0.2-0.1,0.3c-0.1,0-0.2,0.1-0.5,0.1h-0.2v0.3h2.2V57h-0.2C331.1,57,331,57,330.9,56.9z"/>
		<path class="st10" d="M327,54.1c-0.3,0-0.6,0-0.8,0.1c-0.2,0.1-0.4,0.2-0.7,0.4V54c-0.1,0-0.3,0-0.5,0.1c-0.2,0-0.5,0-0.8,0.1v0.2
			c0.3,0,0.5,0,0.6,0.1c0.1,0,0.1,0.1,0.1,0.3v3c0,0.1,0,0.2-0.1,0.3c-0.1,0.1-0.2,0.1-0.4,0.1l0,0c-0.1,0-0.1,0-0.2,0v0.2h2.3v-0.2
			c-0.4,0-0.7,0-0.8-0.1c-0.1,0-0.1-0.1-0.1-0.3v-1c0.2,0.2,0.4,0.3,0.6,0.4s0.5,0.2,0.8,0.2c0.5,0,1-0.2,1.3-0.4
			c0.3-0.3,0.5-0.7,0.5-1.1s-0.2-0.8-0.5-1.1C328,54.3,327.5,54.1,327,54.1z M327.7,56.7c-0.2,0.2-0.5,0.3-0.8,0.3
			c-0.4,0-0.7-0.1-0.9-0.4c-0.2-0.2-0.4-0.5-0.4-0.9s0.1-0.7,0.3-0.9c0.2-0.2,0.6-0.4,0.9-0.4c0.4,0,0.6,0.1,0.9,0.4
			c0.2,0.2,0.3,0.5,0.3,0.9S327.9,56.4,327.7,56.7z"/>
		<path class="st10" d="M410,56.6c-0.1,0-0.3,0-0.4,0.1s-0.1,0.2-0.1,0.3c0,0.1,0,0.2,0.1,0.3c0.1,0.1,0.2,0.1,0.4,0.1
			c0.1,0,0.3,0,0.4-0.1s0.1-0.2,0.1-0.3c0-0.1,0-0.2-0.1-0.3C410.3,56.6,410.1,56.6,410,56.6z"/>
		<path class="st10" d="M364.2,56.6c-0.1,0-0.3,0-0.4,0.1s-0.2,0.2-0.2,0.3c0,0.1,0.1,0.2,0.2,0.3c0.1,0.1,0.2,0.1,0.4,0.1
			c0.1,0,0.3,0,0.4-0.1s0.2-0.2,0.2-0.3c0-0.1-0.1-0.2-0.2-0.3C364.4,56.6,364.3,56.6,364.2,56.6z"/>
		<path class="st10" d="M381.6,54.2c-0.2,0-0.4,0.1-0.6,0.2s-0.4,0.3-0.5,0.5v-0.7c-0.3,0-0.5,0.1-0.7,0.1s-0.4,0-0.6,0v0.2
			c0.3,0,0.5,0,0.6,0.1s0.1,0.2,0.1,0.4v1.7c0,0.1,0,0.2-0.1,0.2c-0.1,0.1-0.2,0.1-0.4,0.1h-0.2v0.3h2.2V57c-0.1,0-0.1,0-0.2,0l0,0
			c-0.3,0-0.5,0-0.5-0.1c-0.1,0-0.1-0.1-0.1-0.3v-1.1c0-0.4,0.1-0.6,0.2-0.8c0.2-0.2,0.4-0.3,0.6-0.3c0.1,0,0.1,0,0.1,0v0.1
			c0,0,0,0.1-0.1,0.1c0,0.1,0,0.1,0,0.2s0,0.1,0.1,0.2c0.1,0,0.2,0.1,0.3,0.1c0.1,0,0.2,0,0.3-0.1c0.1-0.1,0.1-0.2,0.1-0.2
			c0-0.2-0.1-0.3-0.2-0.4C382,54.2,381.8,54.2,381.6,54.2z"/>
		<path class="st10" d="M341.4,53.9c-0.1,0-0.3,0-0.4,0.1c-0.2,0.1-0.4,0.2-0.6,0.3c-0.1-0.1-0.3-0.1-0.4-0.1s-0.3,0-0.4,0
			c-0.5,0-0.9,0.1-1.2,0.3c-0.3,0.2-0.5,0.4-0.5,0.7c0,0.2,0.1,0.3,0.2,0.5c0.1,0.1,0.3,0.3,0.5,0.4c-0.2,0.1-0.4,0.1-0.6,0.2
			c-0.1,0.1-0.2,0.2-0.2,0.4c0,0.1,0.1,0.2,0.2,0.3c0.1,0.1,0.3,0.2,0.5,0.2c-0.3,0.1-0.6,0.1-0.7,0.2s-0.2,0.2-0.2,0.4
			c0,0.2,0.2,0.4,0.5,0.5s0.8,0.2,1.5,0.2s1.2-0.1,1.6-0.2c0.4-0.2,0.5-0.4,0.5-0.7c0-0.2-0.1-0.4-0.4-0.6c-0.3-0.1-0.7-0.2-1.2-0.2
			l0,0h-1c-0.2,0-0.3,0-0.4-0.1s-0.2-0.1-0.2-0.2s0-0.1,0.1-0.2s0.2-0.1,0.3-0.2c0.2,0,0.3,0,0.4,0.1c0.1,0,0.2,0,0.3,0
			c0.5,0,0.9-0.1,1.2-0.3c0.3-0.2,0.4-0.4,0.4-0.7c0-0.2,0-0.3-0.1-0.4s-0.2-0.2-0.3-0.3l0,0c0.2-0.1,0.3-0.2,0.3-0.2
			c0.1,0,0.2,0.1,0.3,0.2c0.2,0.1,0.3,0.2,0.3,0.2h0.1c0,0,0,0,0-0.1c0-0.2,0-0.3-0.1-0.4C341.6,53.9,341.5,53.9,341.4,53.9z
			 M338.3,57.3c0.2-0.1,0.6-0.1,1.1-0.1s0.9,0,1.1,0.1s0.3,0.2,0.3,0.4c0,0.2-0.1,0.3-0.4,0.4c-0.2,0.1-0.6,0.1-1,0.1
			c-0.5,0-0.9,0-1.1-0.1c-0.3-0.1-0.4-0.2-0.4-0.4C338,57.5,338.1,57.3,338.3,57.3z M340.1,55.7c-0.1,0.1-0.3,0.2-0.6,0.2
			c-0.3,0-0.5-0.1-0.7-0.2c-0.1-0.1-0.2-0.3-0.2-0.5c0-0.3,0.1-0.4,0.2-0.6c0.2-0.1,0.4-0.2,0.7-0.2c0.3,0,0.5,0.1,0.6,0.2
			c0.2,0.1,0.2,0.3,0.2,0.6C340.3,55.4,340.2,55.6,340.1,55.7z"/>
		<path class="st10" d="M398.5,56.9c-0.1,0-0.1-0.1-0.1-0.3v-2.5c-0.2,0-0.5,0.1-0.7,0.1s-0.5,0-0.8,0v0.2c0.3,0,0.5,0,0.6,0.1
			c0.1,0,0.1,0.1,0.1,0.3v1.8c0,0.1,0,0.2-0.1,0.3c-0.1,0-0.2,0.1-0.5,0.1h-0.2v0.3h2.2V57h-0.2C398.7,57,398.6,57,398.5,56.9z"/>
		<path class="st10" d="M355,56.6v-2.5c-0.3,0-0.7,0.1-1.2,0.1h-0.1v0.2c0.3,0,0.5,0,0.5,0.1c0.1,0,0.1,0.1,0.1,0.3v1
			c0,0.3-0.1,0.5-0.4,0.8c-0.2,0.2-0.5,0.3-0.9,0.3c-0.3,0-0.5-0.1-0.6-0.2c-0.2-0.1-0.2-0.3-0.2-0.5v-2c-0.2,0-0.4,0.1-0.6,0.1
			s-0.5,0-0.7,0v0.2c0.3,0,0.5,0,0.6,0.1c0.1,0,0.1,0.1,0.1,0.3V56c0,0.3,0,0.4,0,0.6c0,0.1,0.1,0.2,0.1,0.3
			c0.1,0.2,0.3,0.3,0.5,0.4s0.4,0.2,0.7,0.2c0.3,0,0.5-0.1,0.8-0.2c0.2-0.1,0.5-0.3,0.7-0.5v0.7c0.2,0,0.5-0.1,0.7-0.1s0.4,0,0.6,0
			h0.1v-0.3c-0.3,0-0.5,0-0.6-0.1C355.1,56.9,355,56.8,355,56.6z"/>
		<path class="st10" d="M384.3,56.9c-0.1,0-0.1-0.1-0.1-0.3v-3.8c-0.3,0-0.5,0.1-0.7,0.1s-0.5,0-0.7,0h-0.1v0.2c0.4,0,0.6,0,0.7,0.1
			c0.1,0,0.1,0.1,0.1,0.3v3.2c0,0.1,0,0.2-0.1,0.3c-0.1,0-0.2,0.1-0.5,0.1h-0.2v0.3h2.3v-0.3h-0.1C384.5,57,384.4,57,384.3,56.9z"/>
		<path class="st10" d="M389.4,56.6v-3.8c-0.3,0-0.6,0-0.9,0.1c-0.3,0-0.5,0-0.7,0v0.2c0.4,0,0.7,0,0.8,0.1c0.1,0,0.1,0.1,0.1,0.3
			v1.3c-0.2-0.2-0.4-0.3-0.6-0.4s-0.5-0.1-0.8-0.1c-0.5,0-1,0.2-1.3,0.4c-0.4,0.3-0.5,0.7-0.5,1.2s0.2,0.8,0.5,1.1
			c0.3,0.3,0.8,0.4,1.3,0.4c0.3,0,0.6,0,0.8-0.1c0.2-0.1,0.4-0.2,0.6-0.4l0.1,0.6c0.1,0,0.3,0,0.5-0.1c0.2,0,0.5,0,0.8,0v-0.3
			c-0.3,0-0.5,0-0.6-0.1C389.4,56.8,389.4,56.8,389.4,56.6z M388.3,56.7c-0.2,0.2-0.5,0.4-0.9,0.4s-0.6-0.1-0.9-0.3
			c-0.2-0.2-0.3-0.5-0.3-0.9s0.1-0.7,0.3-1c0.2-0.2,0.5-0.4,0.9-0.4s0.7,0.1,0.9,0.3c0.3,0.2,0.4,0.5,0.4,0.9
			C388.7,56.1,388.6,56.4,388.3,56.7z"/>
		<path class="st10" d="M395.2,54.5c0.2,0,0.4,0.1,0.5,0.1s0.1,0.1,0.1,0.2c0,0,0,0.1,0,0.2s-0.1,0.1-0.1,0.2l-0.9,1.6l-0.9-1.8
			c0-0.1-0.1-0.1-0.1-0.2v-0.1c0-0.1,0-0.1,0.1-0.1s0.2,0,0.4,0v-0.2h-1.8v0.2c0.2,0,0.3,0.1,0.4,0.1c0.1,0.1,0.2,0.2,0.3,0.4
			l-0.9,1.7l-0.9-1.8v-0.1c0-0.1,0-0.1,0-0.1c0-0.1,0-0.1,0.1-0.1s0.1,0,0.3,0h0.1v-0.2h-1.8v0.2c0.2,0,0.3,0.1,0.4,0.1
			c0.1,0.1,0.2,0.2,0.3,0.3l1.2,2.4h0.5l1-1.9l1,1.9h0.5l1.2-2.3c0.1-0.2,0.2-0.3,0.3-0.4c0.1-0.1,0.3-0.1,0.4-0.1v-0.2H395.2
			L395.2,54.5L395.2,54.5z"/>
		<path class="st10" d="M362.5,56.8c-0.1,0.1-0.2,0.2-0.4,0.2c-0.2,0-0.3,0-0.3-0.1c-0.1-0.1-0.1-0.2-0.1-0.3v-2h1.1v-0.3h-1.1V53
			h-0.3c-0.1,0.4-0.2,0.6-0.4,0.8c-0.2,0.2-0.5,0.3-0.8,0.4v0.3h0.8v1.9c0,0.3,0.1,0.5,0.2,0.7c0.2,0.2,0.4,0.2,0.7,0.2
			c0.3,0,0.6-0.1,0.8-0.3c0.2-0.2,0.3-0.4,0.3-0.7h-0.3C362.6,56.5,362.5,56.7,362.5,56.8z"/>
		<path class="st10" d="M358.6,55.6l-0.9-0.2c-0.2-0.1-0.4-0.1-0.5-0.2S357,55,357,54.9s0.1-0.3,0.2-0.3c0.1-0.1,0.3-0.1,0.5-0.1
			c0.3,0,0.5,0.1,0.7,0.2s0.4,0.3,0.5,0.5h0.3v-1h-0.3c-0.1,0.1-0.1,0.1-0.1,0.1h-0.1c0,0-0.1,0-0.3-0.1c-0.2-0.1-0.4-0.1-0.7-0.1
			c-0.4,0-0.7,0.1-0.9,0.2c-0.2,0.2-0.3,0.4-0.3,0.6s0.1,0.4,0.2,0.5c0.2,0.1,0.4,0.2,0.7,0.3l1,0.3c0.2,0.1,0.4,0.1,0.5,0.2
			s0.1,0.2,0.1,0.3c0,0.1-0.1,0.3-0.2,0.4s-0.4,0.1-0.6,0.1c-0.3,0-0.6-0.1-0.8-0.2c-0.2-0.1-0.4-0.3-0.6-0.6h-0.3l0.1,1.1h0.3
			c0-0.1,0-0.1,0.1-0.1c0,0,0.1,0,0.2,0c0,0,0.1,0,0.4,0.1c0.2,0.1,0.5,0.1,0.7,0.1c0.4,0,0.8-0.1,1-0.2c0.3-0.2,0.4-0.4,0.4-0.7
			c0-0.2-0.1-0.4-0.2-0.5C359.2,55.8,358.9,55.7,358.6,55.6z"/>
		<path class="st10" d="M375.2,52.8h-2.1v0.3c0.3,0,0.4,0.1,0.6,0.1c0.1,0.1,0.2,0.2,0.2,0.3s0,0.1,0,0.2s0,0.1,0,0.2l-0.9,2.3
			l-1-2.5v-0.1v-0.1c0-0.1,0.1-0.2,0.2-0.2c0.1-0.1,0.3-0.1,0.5-0.1v-0.4h-2.3v0.3c0.3,0,0.5,0.1,0.6,0.1c0.1,0.1,0.2,0.2,0.3,0.5
			l-1,2.5l-1-2.4l0,0c-0.1-0.1-0.1-0.3-0.1-0.3c0-0.1,0.1-0.2,0.2-0.3c0.1,0,0.3-0.1,0.5-0.1v-0.3h-2.3v0.3c0.3,0,0.5,0.1,0.6,0.1
			c0.1,0.1,0.2,0.2,0.3,0.3l1.5,3.8h0.4l1.1-3l1.2,3h0.4l1.3-3.3c0.1-0.4,0.3-0.6,0.4-0.7s0.3-0.2,0.6-0.2v-0.3
			C375.4,52.8,375.2,52.8,375.2,52.8z"/>
		<path class="st10" d="M398.2,53.3c0.1-0.1,0.1-0.1,0.1-0.2s-0.1-0.2-0.1-0.2c-0.1-0.1-0.2-0.1-0.3-0.1c-0.1,0-0.2,0-0.3,0.1
			c-0.1,0.1-0.1,0.2-0.1,0.2c0,0.1,0,0.2,0.1,0.2c0.1,0.1,0.2,0.1,0.3,0.1C398.1,53.4,398.2,53.4,398.2,53.3z"/>
		<path class="st10" d="M378.1,54.6c-0.4-0.3-0.8-0.5-1.4-0.5s-1,0.1-1.4,0.5c-0.4,0.3-0.6,0.7-0.6,1.1c0,0.5,0.2,0.8,0.6,1.1
			s0.9,0.5,1.4,0.5c0.6,0,1.1-0.1,1.4-0.5c0.4-0.3,0.6-0.7,0.6-1.1S378.5,54.9,378.1,54.6z M377.6,56.7c-0.2,0.2-0.5,0.3-0.9,0.3
			s-0.7-0.1-0.9-0.4c-0.2-0.2-0.3-0.6-0.3-1s0.1-0.8,0.3-1c0.2-0.2,0.5-0.4,0.9-0.4s0.7,0.1,0.9,0.4c0.2,0.2,0.3,0.6,0.3,1
			C377.9,56.2,377.8,56.5,377.6,56.7z"/>
	</g>
</g>
</svg>
