<?xml version="1.0" encoding="utf-8"?>
<!-- Generator: Adobe Illustrator 21.1.0, SVG Export Plug-In . SVG Version: 6.00 Build 0)  -->
<svg version="1.1" id="Capa_1" xmlns="http://www.w3.org/2000/svg" xmlns:xlink="http://www.w3.org/1999/xlink" x="0px" y="0px"
	 viewBox="0 0 399.1 131.9" style="enable-background:new 0 0 399.1 131.9;" xml:space="preserve">
<style type="text/css">
	.st0{fill:#FFFFFF;}
	.st1{clip-path:url(#SVGID_2_);fill:url(#SVGID_3_);}
	.st2{clip-path:url(#SVGID_5_);fill:#0050DC;}
	.st3{clip-path:url(#SVGID_7_);fill:#FFFFFF;}
</style>
<path class="st0" d="M50.1,24.9c0-2.8-1.4-4.9-5.6-4.9H31.7v9.7H45C48.3,29.6,50.1,27.7,50.1,24.9 M50.1,45c0-2.9-1.4-5.2-5.6-5.2
	H31.7v10H45C48.3,49.8,50.1,47.9,50.1,45 M64.3,47.8c0,7.2-4.1,14.9-18.9,14.9H17.6V39.8H7.8V29.7h9.8V7h14.1v8.5L40.2,7h7.3
	c11,0,16.9,5.3,16.9,14.3c0,6.4-2.9,10.4-8.8,12.8v0.2C60.8,36.3,64.3,40.7,64.3,47.8 M139.3,17.2c-1.6,0-2.9,0.3-3.8,0.6l-7.7,7.7
	v-7.3h-13.2v44.6h13.2v-34c0,0,3.7,0,8.2,0s8.7,3.7,8.7,8.2v25.9h12.4v-30C157.1,24.4,151.3,17.2,139.3,17.2 M186.3,17.2
	c-1.6,0-3,0.3-3.8,0.6l-7.7,7.7v-7.3h-13.2v44.6h13.2v-34c0,0,3.7,0,8.2,0s8.7,3.7,8.7,8.2v25.9h12.4v-30
	C204.1,24.4,198.4,17.2,186.3,17.2 M98.8,40.8c0-6.8-3.3-12.7-10-12.7c-6.8,0-10,5.9-10,12.7c0,6.4,3.4,11.6,10,11.6
	S98.8,47.2,98.8,40.8 M111,41.2c0,13.1-8.4,22.5-22.1,22.5c-13.8,0-22.2-9.5-22.2-22.5c0-13.9,9.4-24,22.2-24
	C101.6,17.2,111,27.3,111,41.2 M220.7,37L220.7,37l17.7,0.1V37c0-4.7-4-8.5-8.9-8.5C224.7,28.5,220.7,32.3,220.7,37 M249.5,33.5
	c0.5,2.3,0.8,4.8,0.8,7.4c0,1.4-0.1,4.2-0.1,4.2h-13.7h-15.8c0,0.4,0.1,0.7,0.1,1.1c0.1,0.5,0.2,1,0.4,1.4c0,0,0,0,0,0.1
	c1.2,2.7,4.1,4.4,8.2,4.6c0.2,0,0.4,0,0.6,0c5.7,0,9.6-2.2,12.3-4.3h0.6l4.2,10.8c-2.7,2.2-8.8,4.9-16.9,4.9
	c-13.1,0-22.5-8.4-22.5-23c0-14.4,9.4-23.5,21.7-23.5c9.7,0,16.8,5.7,19.6,14.7C249.2,32.5,249.3,33,249.5,33.5 M303.1,18.1v4.7v5.6
	h-9.8v34.4h-7.4h-5.7V28.4H278h-5.2h-2.2v34.4h-7.4h-5.7V28.4h-7.4V18.1h7.4v-4.5l6.7-6.7h6.4v11.2h2.2h5.2h2.2v-4.5l6.7-6.7h6.5
	v11.2H303.1z"/>
<g>
	<g>
		<defs>
			<path id="SVGID_1_" d="M303.1,79.9c0,24.6,19.9,44.5,44.5,44.5s44.5-19.9,44.5-44.5s-19.9-44.5-44.5-44.5
				C323.1,35.3,303.1,55.3,303.1,79.9"/>
		</defs>
		<clipPath id="SVGID_2_">
			<use xlink:href="#SVGID_1_"  style="overflow:visible;"/>
		</clipPath>
		
			<radialGradient id="SVGID_3_" cx="-198.2806" cy="-128.0242" r="1" gradientTransform="matrix(82.0156 0 0 82.0156 16641.4004 10547.5225)" gradientUnits="userSpaceOnUse">
			<stop  offset="0" style="stop-color:#FF4141"/>
			<stop  offset="1" style="stop-color:#0050DC"/>
		</radialGradient>
		<rect x="303.1" y="35.3" class="st1" width="89" height="89"/>
	</g>
</g>
<g>
	<g>
		<defs>
			<rect id="SVGID_4_" x="-140" y="-312.3" width="841.9" height="595.3"/>
		</defs>
		<clipPath id="SVGID_5_">
			<use xlink:href="#SVGID_4_"  style="overflow:visible;"/>
		</clipPath>
		<path class="st2" d="M308.9,101.7c-3.1,2.2-5.1,5.8-5.1,9.9c0,6.7,5.4,12.1,12.1,12.1c4.1,0,7.7-2,9.9-5.1
			C318.7,114.6,312.9,108.8,308.9,101.7"/>
	</g>
	<g>
		<defs>
			<rect id="SVGID_6_" x="-140" y="-312.3" width="841.9" height="595.3"/>
		</defs>
		<clipPath id="SVGID_7_">
			<use xlink:href="#SVGID_6_"  style="overflow:visible;"/>
		</clipPath>
		<path class="st3" d="M315.9,99.5c-2.6,0-5.1,0.8-7,2.3c4,7.1,9.8,12.9,16.9,16.9c1.4-2,2.3-4.4,2.3-7
			C328,104.9,322.6,99.5,315.9,99.5"/>
	</g>
</g>
</svg>
