<?xml version="1.0" encoding="utf-8"?>
<!-- Generator: Adobe Illustrator 21.1.0, SVG Export Plug-In . SVG Version: 6.00 Build 0)  -->
<svg version="1.1" id="Capa_1" xmlns="http://www.w3.org/2000/svg" xmlns:xlink="http://www.w3.org/1999/xlink" x="0px" y="0px"
	 viewBox="0 0 171.5 53.4" style="enable-background:new 0 0 171.5 53.4;" xml:space="preserve">
<style type="text/css">
	.st0{fill:#002346;}
	.st1{clip-path:url(#SVGID_2_);fill:url(#SVGID_3_);}
	.st2{clip-path:url(#SVGID_5_);fill:#0050DC;}
	.st3{clip-path:url(#SVGID_7_);fill:#FFFFFF;}
	.st4{clip-path:url(#SVGID_9_);fill:url(#SVGID_10_);}
	.st5{fill:#0050DC;}
	.st6{fill:#FFFFFF;}
	.st7{clip-path:url(#SVGID_12_);fill:url(#SVGID_13_);}
	.st8{clip-path:url(#SVGID_15_);fill:url(#SVGID_16_);}
	.st9{clip-path:url(#SVGID_18_);fill:url(#SVGID_19_);}
	.st10{clip-path:url(#SVGID_21_);fill:url(#SVGID_22_);}
	.st11{clip-path:url(#SVGID_24_);fill:url(#SVGID_25_);}
</style>
<g>
	<path class="st0" d="M20.5,8.6c0-1.2-0.6-2.1-2.4-2.1h-5.6v4.2h5.8C19.7,10.6,20.5,9.8,20.5,8.6 M20.5,17.4c0-1.3-0.6-2.3-2.4-2.3
		h-5.6v4.4h5.8C19.7,19.5,20.5,18.6,20.5,17.4 M26.7,18.6c0,3.1-1.8,6.5-8.3,6.5H6.3v-10H2v-4.4h4.3V0.8h6.2v3.7l3.7-3.7h3.2
		c4.8,0,7.4,2.3,7.4,6.2c0,2.8-1.3,4.5-3.8,5.6v0.1C25.2,13.6,26.7,15.5,26.7,18.6 M59.4,5.2c-0.7,0-1.3,0.1-1.7,0.3l-3.4,3.4V5.7
		h-5.8v19.5h5.8V10.3c0,0,1.6,0,3.6,0s3.8,1.6,3.8,3.6v11.3h5.4V12.1C67.2,8.4,64.7,5.2,59.4,5.2 M80,5.2c-0.7,0-1.3,0.1-1.7,0.3
		l-3.4,3.4V5.7h-5.8v19.5h5.8V10.3c0,0,1.6,0,3.6,0s3.8,1.6,3.8,3.6v11.3h5.4V12.1C87.7,8.4,85.3,5.2,80,5.2 M41.8,15.5
		c0-3-1.4-5.5-4.4-5.5c-3,0-4.4,2.6-4.4,5.5c0,2.8,1.5,5.1,4.4,5.1C40.3,20.6,41.8,18.3,41.8,15.5 M47.1,15.7c0,5.7-3.7,9.8-9.7,9.8
		c-6,0-9.7-4.1-9.7-9.8c0-6.1,4.1-10.5,9.7-10.5C43,5.2,47.1,9.6,47.1,15.7 M95,13.9L95,13.9l7.7,0v0c0-2.1-1.7-3.7-3.9-3.7
		C96.7,10.2,95,11.8,95,13.9 M107.6,12.3c0.2,1,0.3,2.1,0.3,3.2c0,0.6,0,1.8,0,1.8h-6H95c0,0.2,0,0.3,0,0.5c0,0.2,0.1,0.4,0.2,0.6
		c0,0,0,0,0,0c0.5,1.2,1.8,1.9,3.6,2c0.1,0,0.2,0,0.3,0c2.5,0,4.2-1,5.4-1.9h0.3l1.8,4.7c-1.2,1-3.8,2.1-7.4,2.1
		c-5.7,0-9.8-3.7-9.8-10c0-6.3,4.1-10.3,9.5-10.3c4.2,0,7.3,2.5,8.6,6.4C107.4,11.9,107.5,12.1,107.6,12.3 M131,5.6v2.1v2.4h-4.3v15
		h-3.2H121v-15h-1h-2.3h-1v15h-3.2h-2.5v-15h-3.2V5.6h3.2v-2l2.9-2.9h2.8v4.9h1h2.3h1v-2l2.9-2.9h2.8v4.9H131z"/>
	<g>
		<g>
			<defs>
				<path id="SVGID_20_" d="M131,32.6c0,10.7,8.7,19.4,19.4,19.4s19.4-8.7,19.4-19.4s-8.7-19.4-19.4-19.4
					C139.7,13.1,131,21.9,131,32.6"/>
			</defs>
			<clipPath id="SVGID_2_">
				<use xlink:href="#SVGID_20_"  style="overflow:visible;"/>
			</clipPath>
			
				<radialGradient id="SVGID_3_" cx="-1234.7114" cy="-182.0141" r="0.4368" gradientTransform="matrix(82.0156 0 0 82.0156 101429.875 14946.4785)" gradientUnits="userSpaceOnUse">
				<stop  offset="0" style="stop-color:#FF4141"/>
				<stop  offset="1" style="stop-color:#0050DC"/>
			</radialGradient>
			<rect x="131" y="13.1" class="st1" width="38.9" height="38.9"/>
		</g>
	</g>
	<path class="st5" d="M133.5,42.1c-1.4,1-2.2,2.5-2.2,4.3c0,2.9,2.4,5.3,5.3,5.3c1.8,0,3.4-0.9,4.3-2.2
		C137.8,47.8,135.3,45.2,133.5,42.1"/>
	<path class="st6" d="M136.6,41.2c-1.1,0-2.2,0.3-3.1,1c1.7,3.1,4.3,5.6,7.4,7.4c0.6-0.9,1-1.9,1-3.1
		C141.9,43.5,139.5,41.2,136.6,41.2"/>
</g>
<g>
	<path class="st0" d="M4,44.8v1.7h3.8v1.6H4v1.7h3.8v1.7H2.2v-8.4h5.6v1.7H4z"/>
	<path class="st0" d="M14.2,49.8v1.7H9.2v-8.4H11v6.7H14.2z"/>
	<path class="st0" d="M16.9,44.8v1.7h3.8v1.6h-3.8v1.7h3.8v1.7h-5.6v-8.4h5.6v1.7H16.9z"/>
	<path class="st0" d="M28.9,45l-1.2,1.3h-0.1c-0.4-1-0.9-1.7-1.9-1.7c-1.3,0-2.1,1.2-2.1,2.7c0,1.3,0.7,2.6,2.1,2.6c1,0,1.6-0.7,2-2
		h0.1l1.5,1.2c-0.5,1.5-1.8,2.6-3.6,2.6c-2.8,0-3.8-2.3-3.8-4.2c0-2.4,1.6-4.4,3.9-4.4C27.4,43,28.5,44.1,28.9,45z"/>
	<path class="st0" d="M33.4,44.8v6.7h-1.8v-6.7h-2.3v-1.7h6.5v1.7H33.4z"/>
	<path class="st0" d="M40.5,43.1c1.5,0,2.8,0.9,2.8,2.8c0,1.6-1.1,2.4-2.2,2.6l2.2,3.1h-2.3l-2-3h-0.6v3h-1.8v-8.4H40.5z M38.5,46.9
		h1.6c0.9,0,1.4-0.4,1.4-1.1c0-0.6-0.4-1-1.2-1h-1.8V46.9z"/>
	<path class="st0" d="M44.8,51.5v-8.4h1.8v8.4H44.8z"/>
	<path class="st0" d="M55,45l-1.2,1.3h-0.1c-0.4-1-0.9-1.7-1.9-1.7c-1.3,0-2.1,1.2-2.1,2.7c0,1.3,0.7,2.6,2.1,2.6c1,0,1.6-0.7,2-2
		h0.1l1.5,1.2c-0.5,1.5-1.8,2.6-3.6,2.6c-2.8,0-3.8-2.3-3.8-4.2c0-2.4,1.6-4.4,3.9-4.4C53.5,43,54.5,44.1,55,45z"/>
</g>
</svg>
